Linda;Vondráčková;9.5.1943;Střelice;Ploskovická;XXXX;217468053;OP
Marcela;Bartoňová;27.2.1950;Kolín;Hudcova;1551;200550235;OP
Luděk;Duda;29.3.1984;Jirny;J. Koczura;1698;1127983490;OP
ЕЕГСПКМСЖИТНОСЖО;УСПЖТАЕЗГААБКИКТ;11.11.1951;Lipník nad Bečvou;K Remízku;649;1454666067;PAS
Jáchym;Diviš;16.7.1975;Soběslav;Nerudova;1281;56569042;PAS
Dalibor;Kopecký;3.10.1998;Třeboň;Dubnická;211;1617046705;PAS
L.;628641533;26.3.1934;Březnice;K Lesu;501;1477521204;OP
СЙЛВВК;ДПЛВАГДБЖСГЗЗЙОУ;15.3.2004;Znojmo;Třebešovská;1974;1816610767;PAS
Jitka;Klimešová;1587173014;Blovice;U drážky;17.5.1960;;OP
Renáta;Adámková;NEVÍM;Světlá nad Sázavou;Větrná;1843;1849727770;OP
XXXX;David;1471360990;Domažlice;Československých tankistů;6.4.1959;;OP
Magdalena;2039312964;29.5.1942;Nový Bor;Jilmová;678;1694976084;PAS
A.;Š.;13.10.2003;Bojkovice;Císařská;291;2018479997;PAS
Arnošt;Šíma;18.3.2021;PN;nám. Republiky;;1908309513;OP
M.;D.;12.2.2000;Kroměříž;Revoluční;876;380953897;OP
Anežka;Nosková;18.12.1971;Chotěšov;K Jezu;429;64329631;PAS
Bohumil;Koudelka;X;Jeseník;Široký vrch;1279;534011718;OP
XXXX;Pavelková;14.4.1942;Odry;Pod Školou;1548;1231761861;PAS
Radovan;Petřík;4.9.1961;Tábor;Poděbradská;1858;1779614625;PAS
Marek;Hájek;24.6.1958;Blovice;Luční;16;2120794722;
Bohumil;Adámek;20.8.1935;Březnice;Cikánkova;252;184241666;OP
Viktor;Štěpánek;NEVÍM;Miroslav;Dukelských hrdinů;1409;1242229500;OP
XXXX;Hanák;NEVÍM;Frenštát pod Radhoštěm;Smetanova;101;12549208;OP
XXXX;Sikorová;12.3.1978;BM;náměstí Boženy Němcové;172;507908049;OP
Patrik;Havlíček;X;Úvaly;Březová;704;1003685698;PAS
Matouš;Urbánek;29.8.1972;Sadská;Husova;1999;1481915247;OP
ĥăĚĜĖėĀ;ĠĊćĕėĢĢĕĎąĎęĒ;10.11.1991;Bolatice;Grammova;1033;451015443;OP
L.;S.;3.1.1980;Jaroměřice nad Rokytnou;Generála Mejstříka;1549;1887936958;PAS
čĕĀĄĎĐħĒć;ďċČēĖđą;28.6.1991;Veselí nad Moravou;Ve Stráni;1274;1700574325;OP
Alexander;Jeřábek;16.5.1966;Albrechtice;Krakovská;241;1226147395;PAS
Karel;Lukeš;9.10.2020;Týniště nad Orlicí;Na Malé Růži;1482;540039738;OP
Romana;Štěpánková;12.6.1995;Návsí;Pražákova;959;1368079903;PAS
Tomáš;Minařík;29.1.1993;Dobruška;Lhotákova;1205;2091300775;
Dana;Bartoňová;12.8.2015;Boskovice;Poříčská;797;1562387529;OP
Ludmila;Kováčová;11.9.1992;Rohatec;Podbělová;959;1527410391;OP
ЗЛЗЗПУЛПАЖДББЛЖВ;ЙККМ;11.7.1938;Slaný;Lipnická;1162;1478641587;OP
Milena;Prokopová;19.4.1936;Hulín;Ke Kališti;713;1407212803;OP
Jonáš;1486418930;1.5.1957;Hluk;Slunečná;291;1006137469;PAS
Marcela;798456860;1.1.0001;Krásná Lípa;Burdova;470;1740234098;OP
Přemysl;Mrázek;14.9.1999;Mohelnice;Hřbitovní;1648;48854129;
Věra;Klímová;11.4.1943;Mnichovice;K Zámku;1480;144655230;OP
Ema;Jindrová;23.8.1948;Veverská Bítýška;Na Kopečku;1617;1968390471;PAS
РНПКИАБЗМЖУПБР;ПМТАП;X;Vizovice;Lísková;432;288134478;OP
Naděžda;Vránová;17.11.1965;BD;1. máje;107;1808548617;PAS
Milan;373895362;23.10.1954;Hrušovany nad Jevišovkou;Větrná;342;1814361714;OP
Iveta;Stránská;15.2.2014;Vejprnice;Vodkova;XXXX;1713685131;PAS
Růžena;Dlouhá;27.1.1989;Staňkov;Tvrdého;40;1376230648;PAS
Daniela;Jirásková;X;Kojetín;Špačková;1256;1330842218;OP
Zuzana;Adamová;8.1.1952;Opava;Nad Tratí;;340421204;OP
Lukáš;Pospíšil;31.12.1995;Dobřany;Javorová;900;1915882037;PAS
S.;U.;4.9.1960;Bakov nad Jizerou;U Studánky;285;1386122068;OP
Pavel;Majer;30.3.1966;Velešín;Pod Strání;;1057626693;PAS
Jonáš;Čech;21.4.1953;Štěpánkovice;Za Úřadem;;1333198377;PAS
S.;B.;9.10.1949;Choceň;Sedlecká;XXXX;1699528830;OP
Daniel;2090596716;23.2.1955;Rumburk;Nad Záhořím;1329;1274306706;PAS
ЕЕЖСР;ПАЗДСЖВБКИЙСИАБ;4.2.1961;Valtice;Hronovická;1304;1359787715;PAS
ЗЗЛЛИТРПБУЗВРД;ОСИПОЙКЗЖИЙЕВНКП;18.7.2011;Nýrsko;Pešova;655;1966857461;PAS
Dagmar;Žáčková;14.2.1959;Orlová;Nad Školou;406;1623785602;PAS
Iva;Krejčová;23.7.1951;Zruč nad Sázavou;Loučky;XXXX;1125785721;PAS
Kryštof;Musil;17.9.1985;Ledeč nad Sázavou;Na Proutkách;1105;1941378478;PAS
Adam;Macháček;22.1.2007;Studénka;Přepeřská;1648;30623249;PAS
Barbora;Petříková;4.11.1979;BC;Vápenická;347;1493153270;OP
Marcel;2000383357;30.4.1949;Sezemice;Hrušovická;1806;1407120206;PAS
Radka;Sládková;30.2.1989;Liberec;Korábová;318;1665970402;PAS
Patrik;Kubík;28.9.1952;Bojkovice;Zavadilka;;1031248338;OP
ĈąĄ;ĒĂę;4.1.2001;Čáslav;Za Šmatlíkem;1649;346588035;OP
Zdenka;Šrámková;11.8.1971;Nová Paka;Františka Chvátliny;XXXX;681573180;OP
Ludmila;Konečná;10.8.1961;Studénka;Osvětová;87;482519539;PAS
Klára;495391896;17.7.1953;Větřní;Hlubočepská;415;1225892590;PAS
XXXX;Tichá;15.9.1962;Lanžhot;V Sadech;399;1788613237;OP
L.;B.;13.12.2020;Jablonné nad Orlicí;Malenická;1581;1440949643;PAS
Barbora;Smetanová;27.11.1997;Polička;Jabloňová;1019;1400467361;PAS
Miluše;Kadlecová;6.12.2008;SL;Centrum;222;828632488;OP
Arnošt;Šindelář;19.9.2020;Děčín;Družstevní;1823;1330470504;PAS
МЗТОЕ;СГВКДИ;8.2.1970;Horní Bříza;Dolní;1247;77640322;OP
Kamila;Burdová;25.5.2016;Hostivice;Vyšebrodská;XXXX;672719934;OP
Sebastian;1047018913;7.1.1986;Dolní Lutyně;Východní;650;2104221168;PAS
Dominika;224365996;18.9.1934;Dačice;Zlatnická;286;417014800;OP
Mária;Petříková;10.4.1993;Chlumec;U Vodojemu;323;1032466474;OP
Iva;Horváthová;9.8.1999;Vamberk;Pernštýnské náměstí;1061;1114237295;PAS
Natálie;Hladíková;31.1.1978;Rakovník;Granátová;966;2020142342;PAS
Luboš;Nový;3.9.1964;Chrastava;U brány;439;1798700453;PAS
Matouš;Boháč;12.6.1966;Miroslav;K Vrbě;XXXX;922597348;OP
Tomáš;Doležal;14.3.1967;Rohatec;Rybářská;1596;939186621;OP
Denis;Zajíček;1.5.2011;Petřvald;Smetanova;;705980892;OP
СВБТДЛУ;ЛКЗРЗЖКЗО;3.1.1968;FJ;U Kulturního domu;1953;1275538171;OP
Rostislav;Macháček;NEVÍM;Ratíškovice;Faradayova;1369;1792191048;OP
Nikol;Balážová;9.4.1947;Kozlovice;U hlásky;166;1631960963;PAS
Anežka;Hlaváčová;28.11.1998;Mníšek pod Brdy;Šumická;737;1607028350;PAS
СОЛИДРСННУ;ЖОКМВУВМСГКК;X;Neratovice;Hlohová;998;1586711963;OP
Bronislav;Tesař;8.8.2005;CC;Krátká;1446;1771847465;PAS
Romana;Petrová;X;Jemnice;Za Humny;667;1434465238;PAS
ĂđāģĐĖěđĞĒďčě;ģĢĥďĚĞ;22.5.2018;Stráž pod Ralskem;Husovo náměstí;XXXX;1204651203;PAS
Lucie;Janečková;4.6.2018;Lipník nad Bečvou;Nad Červenkou;287;304I537;OP
Radomír;Ondráček;1707991381;Hořice;Kladinovská;6.3.2015;;OP
Jozef;Bednář;10.10.1965;Desná;Modřínová;100;1403463263;PAS
Alžběta;Zajícová;24.7.2022;Kralupy nad Vltavou;Ke strouze;616;60025545;OP
Robert;Bartoň;29.9.1970;Rajhrad;Platanová;1568;96941782;PAS
Adolf;Prokeš;5.12.1995;Heřmanův Městec;J. Matičky;XXXX;936710385;OP
M.;B.;13.4.1979;Velké Popovice;Urešova;1323;1768182712;OP
Gabriela;Kubátová;8.4.1944;Jičín;Levandulová;176;1459405646;OP
Veronika;1433442942;11.2.1966;Tlučná;Votuzská;963;243335907;OP
Zuzana;Hofmanová;5.10.1983;Dačice;Luženická;1692;1015557343;PAS
Martin;Smetana;21.1.1964;Třinec;náměstí Kryštofa Haranta;298;1578869378;PAS
Radek;1936245363;7.9.1991;Letovice;U přelízky;1341;1583116138;PAS
R.;T.;28.4.1934;Kunovice;Nákupní;1174;1126889744;PAS
ąĈč;ĚěčđăĀĐČĜčēčĜČ;29.4.1946;DA;U Bettynky;357;535955839;OP
Věra;1319365571;14.9.1992;Zlaté Hory;Velké náměstí;232;1578869378;PAS
Štěpán;Hájek;11.12.2006;Pacov;Šípková;1752;1507354277;PAS
Diana;Adámek;2.9.2016;Králův Dvůr;Líšeňská;1405;1758657498;PAS
Matěj;Prokeš;X;Brušperk;Luční;713;390072872;OP
Eduard;Červený;7.11.2010;Rokycany;Cikánkova;1491;2041196126;PAS
Miroslava;Zemanová;NEVÍM;Pardubice;Luční;1658;1578869378;OP
Tadeáš;Straka;11.8.1958;GM;Jiřího Jandy;1692;1261101167;PAS
Evžen;Bílek;30.3.1972;Paskov;Povltavská;1183;1010096113;OP
Iveta;Vondráčková;19.4.1983;Libochovice;K Potoku;1396;1060794881;OP
Anna;Řeháková;NEVÍM;Libochovice;Nad Vodou;404;1440396545;OP
Dalibor;Řehák;22.5.1950;Jablonec nad Nisou;Strážiště;52;189G018;OP
УДВТ;ГУКМОВ;10.1.1958;Přerov;Na Fabiánce;;1845750675;OP
Jindřiška;Růžičková;NEVÍM;Jaroměřice nad Rokytnou;Hujíčkova;1685;1787076250;OP
Matouš;Valenta;13.7.1948;Dětmarovice;Na Vošverku;1099;36440390;OP
XXXX;Kovařík;18.4.1967;Svitavy;Zeyerova;438;1364344931;OP
Adolf;Štěpán;1.1.0001;Loštice;Sýkorčí;331;573146530;PAS
Sára;Němečková;NEVÍM;Prachatice;Datlová;1803;1151206263;PAS
Libor;Červený;27.9.1934;Humpolec;Bezručova;1932;1697356884;PAS
Dominika;Horáková;18.6.1977;Skuteč;Smrková;1372;1473545417;PAS
Veronika;Coufalová;1748837718;Hrádek nad Nisou;Vodňanská;16.8.2008;;PAS
Markéta;Čechová;15.11.1966;Prachatice;Na Okrouhlíku;281;1545746185;PAS
Vlasta;Volfová;X;Větřní;Dobrovského;1307;1094822488;OP
Bohumír;1194438879;5.3.2007;Svitavy;Milířská;1967;1075927229;PAS
Klára;Jirásková;3.11.1999;Zbýšov;Štěpanická;1402;1965314787;PAS
M.;F.;28.1.1968;Stochov;K Vinohrádku;9;1572979290;OP
Michal;1086925023;13.6.1994;Nové Město nad Metují;Hašlerova;615;122393001;OP
Gabriela;Málková;12.8.2022;Brušperk;V Břízách;;774520857;OP
Zdeňka;Havelková;22.5.1954;Chrudim;Střední;1871;1591389368;OP
ĉħĖĂĜĐĎĔĕĢĊĀĒĤğĦ;ğĂĀČĄĊč;8.9.1981;Hluk;U Jízdárny;453;1842298362;OP
Ladislav;Pánek;12.3.1977;Sedlčany;Luční;1609;2041893556;PAS
Kamila;Kocourková;19.7.2007;Zdiby;Ve Lhotce;162;628995701;OP
УОНТЙБИПТ;ВААСЖГРНУИРТМЙ;14.6.1980;Modřice;Bohumila Hájka;566;1148730854;OP
Břetislav;Červenka;25.4.1997;Bělá pod Bezdězem;K Parku;202;1741738064;PAS
НГВЗ;БВДВСЛЕУЗПИКТ;8.12.1955;Turnov;Podhoří;330;1655776720;PAS
XXXX;Divišová;27.1.1962;Telč;Levohradecká;699;1434216637;OP
Ludmila;Fialová;13.2.1992;České Budějovice;Sukovská;431;1155096439;PAS
АПЕКАГ;УЖБНКТРОР;1836317861;Příbor;Františka Herdy;6.6.1957;;PAS
Vojtěch;Blažek;29.11.2011;Hulín;Žitná;174;2018725767;PAS
Denis;Hlaváček;5.3.1938;Lišov;Komenského;662;269964586;OP
Igor;Tomek;1.1.0001;Buštěhrad;Všehlušická;915;1545348967;PAS
Štěpán;Vlk;1.1.0001;Vimperk;V Klidu;824;1442326638;PAS
Renata;Šimková;30.1.1996;Loket;Na Svahu;951;600434989;OP
Marcela;Musilová;26.8.1950;Pardubice;Dlouhá;308;1904228576;PAS
Zdeněk;Fiala;97434122;Chrudim;Červenomlýnská;27.11.2013;;OP
Zdenka;Němcová;4.6.1944;Volary;Běchovická;25;508822759;OP
Vlasta;Bartoňová;1044256281;Aš;Nad Vavrouškou;22.4.2017;;OP
Karel;Švarc;21.7.1946;Čelákovice;Sídlištní;674;1134886108;PAS
XXXX;ĚēăĂěēđ;15.11.2021;Rosice;Řebříčková;1944;977979952;OP
ЗИНРДЗНИКЛВД;ПДСПЕЙННОЖ;17.9.1949;Velký Týnec;Štěpánkova;1271;1075701418;PAS
Robert;Pánek;1.1.0001;Rousínov;Za Lékárnou;662;75171291;PAS
Soňa;Martinková;30.5.1967;Hořice;Werner-Seelenbinder-Straße;;626110422;OP
Magdalena;Růžičková;5.9.1973;Smržovka;Nad Babím dolem;1721;1120813184;PAS
ЙЗСМГСНПЗТИМВВКЛ;ЙМ;18.7.1984;Planá nad Lužnicí;Lipová;;289519026;OP
XXXX;Kuchařová;12.3.1981;Kladno;Arnošta z Pardubic;562;1125754810;PAS
Lucie;Novotná;16.3.1999;Bojkovice;Dobšínská;254;1824036975;PAS
Bohumil;Musil;X;Nový Bor;Okružní;1550;1270466076;PAS
A.;H.;6.10.1937;Nivnice;Křepelčí;965;1352941964;PAS
Alexander;Rada;2.5.1986;Orlová;náměstí 17. listopadu;1505;1166325815;PAS
Františka;Machová;12.10.1966;Tábor;Všehlušická;1019;1849428072;PAS
ЗОДУ;УЖОМБИЛВЖКЖОЖ;X;Šenov;Velký Hájek;1708;1685866180;OP
Matouš;Diviš;NEVÍM;Žatec;Pionýrů;13.5.1964;;OP
Martina;Michálková;13.2.1940;Klatovy;Řadová;1887;1098445868;PAS
Jindřiška;Hanušová;15.11.1945;Kuřim;Beskydská;XXXX;1592180228;PAS
Bohumil;Adam;25.5.2001;Velké Přílepy;Na Moklině;916;741237681;OP
P.;H.;X;Jemnice;K Lipinám;1605;1464473179;PAS
Jindřich;Brož;18.6.1957;Kamenický Šenov;Dubová;;1215504874;PAS
Jindřich;Hrubý;29271632;Světlá nad Sázavou;Vitíkova;27.11.1959;1899767249;OP
Vladimíra;Smetanová;30.2.1949;Frenštát pod Radhoštěm;Winklerova;1141;131K486;OP
Růžena;Procházková;1038826487;Jílové u Prahy;Legionářská;17.12.1985;;PAS
Ema;Linhartová;29.6.1965;Bohumín;Větrná;16;1694667927;OP
Jaroslava;Pavlíčková;17.12.1952;Vratimov;Dobrovského;653;332609276;OP
Alena;Vrbová;10.12.2004;Čerčany;Xaverovská;855;1146051754;PAS
Michaela;Bláhová;26.3.2002;Bystřice;V Uličce;;1137065713;OP
A.;P.;1.1.1976;IH;Přemyslova;320;1428566560;PAS
Aleš;Duda;12.1.1968;Dvůr Králové nad Labem;Rožďalovická;1085;33380724;PAS
Daniela;Davidová;16.9.1935;JF;nábřeží Husovo;177;1899767249;OP
Martina;Čapková;4.7.1997;Třemošná;Pod Vinicí;1979;297716418;OP
Dominika;Jeřábková;22.7.2008;Horažďovice;Ledečská;863;1969302057;PAS
XXXX;Vítková;28.9.2012;Velké Pavlovice;Polní;1156;168383168;OP
Mária;Pospíšilová;19.5.1964;Králíky;Dělnická;1976;67525758;PAS
Julie;Havlíčková;27.12.1934;Česká Lípa;Thunovská;590;189G754;PAS
Hynek;1595000959;9.6.1950;Nýřany;Vysoká;1286;297755328;OP
Štěpán;Vodička;22.2.1995;Lázně Bohdaneč;Rozacínova;601;1286122308;PAS
Miroslav;Hruška;18.4.1999;Milovice;Podboří;279;921900119;OP
Mária;Březinová;4.4.1958;Dobřany;Alej Jiřího Wolkera;1151;1977163565;OP
Miroslav;Hofman;4.5.1999;Jirkov;Šťavelová;980;177246084;OP
XXXX;Vodičková;12.12.1946;Kostelec nad Orlicí;Na Parohách;1112;443928816;OP
Vratislav;Hruška;1.1.0001;Nový Jičín;Větrná hůrka;157;1641442310;PAS
René;Poláček;2.6.1990;Kaplice;Kout;459;131P813;OP
Kryštof;Beran;NEVÍM;Nová Role;nám. Osvobození;345;887517531;OP
Věra;Špačková;18.11.1934;AP;Bolevecká náves;1745;28368172;PAS
Josef;Karásek;28.4.2018;Starý Plzenec;Radnická;1247;2113509345;OP
Adéla;Černá;29.7.1964;Moravské Budějovice;Karlovarská;1473;1620771678;OP
XXXX;Turek;8.7.2007;Zdiby;Nad Husovými sady;80;2113509345;OP
Sebastian;Šulc;X;Bílina;Palackého nám.;611;175O400;PAS
Magdaléna;Marešová;21.6.1994;FD;Ponrepova;1065;1086349706;OP
Tibor;Dufek;31.10.1995;Varnsdorf;Wolkerova;1924;1017373362;OP
Miloslava;Martínková;20.12.2013;Šenov;Labutí;678;1630887743;OP
САМСМУНУЕАБОЗВА;НТСЙЖЛПЛОТЛДИКВМ;12.6.1957;Valašské Meziříčí;Pionýrů;;1824928099;OP
Sabina;Klímová;1289178451;Velké Bílovice;Ratibořická;24.10.1955;;PAS
Alžběta;Krátká;1692608690;Česká Skalice;Náměstí;1.4.2013;;OP
Magdalena;Kolářová;9.6.2019;Střelice;Za Mlýnem;763;128K917;PAS
Vlastimil;Jílek;4.6.1978;Fryšták;nám. Osvobození;1224;490891782;OP
Jarmila;Nová;1.1.0001;Mimoň;U Botiče;XXXX;1090502320;OP
Miroslava;Kuncová;18.6.1947;EQ;Jaselská;68;2026553368;PAS
Radim;Zajíček;NEVÍM;Újezd u Brna;Chládkova;1757;1905164991;OP
Vladimír;Sedláček;31.1.2021;BN;Višňovka;1091;1306311549;PAS
Přemysl;Kočí;1.1.0001;Ostrožská Nová Ves;U Hrušek;1432;963149940;OP
Libuše;Slezáková;NEVÍM;Chropyně;Na Dubech;1214;1142726298;OP
Karel;Vítek;2.6.1972;Nový Malín;V Lomech;501;852252346;OP
ĖęĢħĈĞ;ċĎĄĝģĎĊěĤ;14.8.1983;Kyjov;Smetanova;650;1099214630;OP
Erik;Čermák;17.5.1979;Brandýs nad Labem-Stará Boleslav;Stonavská;89;1491045023;PAS
Jakub;Gregor;4.1.2010;Hostinné;Travnatá;1588;1118589406;PAS
Jindřiška;Čížková;23.3.1956;Chropyně;U Zastávky;XXXX;711L412;OP
Karolína;Hrubá;6.2.2000;Kojetín;Slunečná;953;152758274;
Lubomír;Dušek;25.8.1988;Mnichovice;Za Šmatlíkem;1412;1540856221;PAS
Igor;Kubíček;30.12.2023;Dubí;Úvalská;;1814457169;OP
Libuše;Janoušková;17.10.2011;Jirkov;Okružní;437;757090968;OP
Mikuláš;Hrubý;31.11.2017;Bolatice;nám. Dr. E. Beneše;502;220569045;OP
Marek;Koudelka;24.1.1983;Bolatice;Mírová;985;1662957555;PAS
Michal;Ptáček;6.12.1939;Bruntál;Sadová;97;2087622693;PAS
Hana;Beránková;11.6.2014;Pardubice;U Samoobsluhy;783;1781414296;PAS
Iva;Adámková;378613901;Vizovice;Puškinova;7.2.1935;;OP
Barbora;Bartoňová;13.12.1960;Hluk;Na Výsluní;XXXX;1984748733;PAS
Andrej;Přikryl;NEVÍM;Žirovnice;Nad cihelnou;912;1717721376;
Tobiáš;Sedlák;1.3.1980;Hodonín;Dubová;1839;1164811346;OP
XXXX;Martínek;4.2.2022;Poděbrady;Dolní;909;1736584208;PAS
XXXX;Pánková;3.7.1934;Luhačovice;Jaromírova;1497;1253497421;OP
Květoslava;Doleželová;2.1.2017;Kosmonosy;Pivovarská;1811;2015679164;PAS
Jindřiška;Gregorová;16.8.1939;Jirny;Vilémovská;897;823447842;PAS
Michaela;Špačková;9.7.1976;Nepomuk;U Svornosti;1278;324746931;OP
Olga;Pavlíčková;NEVÍM;Tachov;Husovo náměstí;309;1349839528;PAS
Miroslava;Kováčová;18.6.1977;Zeleneč;nám. Smiřických;1184;1066140077;OP
Julie;Kvapilová;23.7.1940;Strání;Stropnická;1168;823447842;PAS
ГЙЖЙОУНАСО;ПНМСОВБМИ;26.2.1991;Prostějov;Na Zeleném Vršku;734;653118964;OP
Nikola;17367462;6.1.1963;Bělá pod Bezdězem;Na vinici;72;1393243981;OP
Pavla;1893451550;16.9.1979;BG;U Jamborovky;642;372247543;OP
Svatopluk;Havelka;NEVÍM;Veverská Bítýška;Na Blatech;615;1430967463;PAS
Viktor;Král;6.9.2017;Pohořelice;Štítová;1386;2128953995;PAS
Alena;Poláková;23.6.1943;Podbořany;Jírovcova;1505;1501817542;PAS
Blanka;Burdová;19.11.1976;Roztoky;Adolfa Pecha;1601;204A029;PAS
Milena;Kovaříková;X;Cvikov;V Klidu;799;1698410872;OP
Ęģāĉ;ĞĠģĂĦĝĎćĐĉĘ;1.12.1939;Trutnov;Staňkova;1533;1163425951;PAS
Rudolf;Přikryl;NEVÍM;Velešín;Křepelčí;1671;1580447261;PAS
Bedřich;Brabec;4.11.2011;Dubí;Dlouhá;493;1032105027;OP
XXXX;Slezáková;1314377638;Mikulov;Šlikova;15.4.2006;;PAS
Danuše;Sládková;NEVÍM;Otrokovice;Maxovská;414;446604557;OP
XXXX;Jeřábek;5.3.1983;Palkovice;K Labi;1187;987775553;OP
Dalibor;Štěpánek;1.1.0001;Velké Popovice;Podboří;203;1828275094;PAS
Ludmila;Hofmanová;X;Hrádek nad Nisou;Dobrovského;1450;618481217;OP
Svatopluk;Šebesta;1839539917;Prachatice;Táboritská;13.3.2013;;
Olga;1312189154;33611993;Mohelnice;Dvořákova;22.3.1951;;PAS
R.;B.;23.9.1963;Bakov nad Jizerou;Úzká;640;1733532294;PAS
Jiří;Sláma;5.2.1972;Hrušovany nad Jevišovkou;Aldašínská;1914;856021620;OP
ČĆĞħĎćĂ;ĘĕĀ;13.1.1935;Luka nad Jihlavou;Komenského;;1582658826;OP
Tereza;Vlasáková;21.4.1934;LQ;Láznisko;283;1525738230;PAS
T.;V.;3.12.2022;Košťany;U Kapličky;1991;1650134436;OP
Libuše;Richterová;26.3.2003;Přelouč;Slatiňanská;49;1712859076;OP
Т.;У.;21.7.2018;Štětí;Habrová;1342;1761277002;OP
Gabriela;Coufalová;18.3.1941;Velké Meziříčí;U Střelnice;XXXX;1674481627;PAS
Robin;Dostál;28.12.1949;Trutnov;U Zahradnictví;1826;1632083800;OP
Pavla;Kovaříková;3.5.1968;Jilemnice;Luční;XXXX;1646409460;OP
Helena;1785894548;25.2.2002;Přerov;Havlíčkova;848;1819881634;PAS
Matyáš;Polášek;15.5.1972;Vejprnice;Podboří;1304;902R090;OP
Mikuláš;Trávníček;NEVÍM;Velké Přílepy;U Zájezdku;509;170G938;PAS
Anna;Mrázová;X;Hustopeče;K Celinám;1684;1767832389;PAS
Zdenek;Benda;1.1.0001;Kralovice;K Úvozu;1614;1186359651;PAS
ĥĎćĠęĤģĦĢĥěĊāĈĒ;ĄĉĦėđĤ;9.8.2020;Nový Malín;Za Stodolou;326;79106192;PAS
Adolf;Kroupa;2083835401;Postoloprty;Františka Chvátliny;18.12.1993;;PAS
Jaromír;Strnad;1.10.2002;Frýdek-Místek;Na Vinici;1992;391796978;OP
Oldřich;Růžička;21.3.2013;Zábřeh;Do Kopce;1089;1792299643;PAS
Jakub;Jelínek;NEVÍM;Rousínov;Truhlářská;1185;1850902919;OP
Nela;Sládková;23.12.1946;Horní Slavkov;Javorová;XXXX;453548618;OP
Rostislav;Sobotka;22.5.2022;Jaroměř;Hrádecká;1345;1781699078;PAS
Peter;Bauer;19.7.1980;Návsí;Dlouhé vrchy;XXXX;1716750529;PAS
Irena;Daňková;NEVÍM;Sedlčany;Karla Kamenického;288;923Q336;OP
Petra;Šedivá;1.1.0001;Svatobořice-Mistřín;Xaverovská;826;1018738460;OP
Miroslava;Novotná;13.4.2018;Zliv;V Úvozu;1065;36217821;PAS
Marie;Divišová;6.8.1995;Hořice;V Soudním;1509;989959740;OP
Jindřiška;Šebková;7.7.1980;Sázava;Blatská;157;875611579;OP
Sofie;Němcová;19.5.1950;Bučovice;Lucinková;XXXX;106C249;OP
Ivana;Vacková;1.1.0001;Lysá nad Labem;Mstětická;875;1183084893;OP
Martin;Nový;25.1.1957;Vrbno pod Pradědem;U Dvora;875;1284190098;PAS
Aneta;Horáková;NEVÍM;Mníšek pod Brdy;V Podhoří;710;704706528;OP
ЖМКЙМОРМНЕ;ПККРСЕМССБДРЗС;10.10.1941;Slavkov u Brna;Vojtěcha Lanny;1136;1225550814;PAS
Rostislav;Slavík;2.1.1966;Zruč nad Sázavou;Na stráni;782;136P181;PAS
Ludvík;Filip;2.6.1999;QN;V Soudním;1455;1199633333;PAS
Daniel;Kraus;24.5.1947;Hořovice;Pod Vrchem;1733;373529675;OP
Emil;Kubíček;26.10.1998;Veselí nad Moravou;Košařova;779;1196544417;PAS
Mária;Hrušková;3391322;Kroměříž;V. Fuky;20.9.1954;;OP
Igor;Konečný;25.9.1981;Strání;Poděbradská;773;141568628;OP
Ladislava;Slezáková;X;Jablonné nad Orlicí;Pod vrškem;28.6.1963;;PAS
Olga;Vránová;3.4.1983;Tlučná;Rolnická;682;1425914890;PAS
Sebastian;Čapek;3.10.1948;Chodov;Požárnická;;72293287;PAS
Miroslava;Zahradníková;31.9.1935;Stříbro;Akátová;1892;1126914519;PAS
Ladislava;Urbanová;12.5.1969;Unhošť;Na Proutkách;45;1977578549;OP
ЖБРЙЖПЛ;ДДИ;15.1.1937;Červený Kostelec;Bukovická;464;1240788022;OP
Otakar;Hlaváč;14.7.1986;Mimoň;U Jízdárny;941;1215039992;OP
Anežka;Vítková;1081046443;Lázně Bohdaneč;Starovická;X;;PAS
АТВДПМЗОКИА;БИПСМЗ;23.5.2010;Dobruška;Mšecká;628;313395905;OP
Vladislav;Březina;;Duchcov;Lomená;1691000827;;OP
Natálie;Zapletalová;23.2.1992;Jablonné nad Orlicí;Okružní;1365;136Q513;OP
Adolf;Bílek;23.11.2018;Opočno;Vančurova;1863;1549882902;PAS
Josef;Hlaváček;1.9.1995;Dubňany;Anglická;872;933636345;OP
Markéta;1486131877;18.7.1964;Nový Bydžov;B. Němcové;601;1772837694;PAS
Veronika;Burešová;15.1.1962;Desná;V Babyku;677;2145889137;PAS
XXXX;Procházková;18.12.1939;Kralovice;Kelvinova;477;723087157;OP
ĐĂħĝĐĕĎĊ;ĝĞāĈĉęĄĄģēĉĠ;591986183;Hořovice;Jiřího Macháčka;23.10.2001;;OP
Tereza;Radová;9.1.2013;Litvínov;Nová;1679;1694917637;OP
Samuel;Čermák;19.4.1984;Frýdlant nad Ostravicí;Riegrova;414;1229200947;OP
Michael;1574449648;3.7.1948;Králíky;Návrší;XXXX;1976789306;OP
Adéla;Kadlecová;30.1.2006;Horní Slavkov;Velký Hájek;1720;1700119726;PAS
Anežka;Vodičková;5.2.1971;Jílové;Mrkosova;1492;2101372901;PAS
Tobiáš;Janoušek;11.8.2018;Lovosice;Hastrmanská;1198;1256009146;OP
Květoslava;Pánková;14.8.1954;Nový Bor;Gotthardská;159;1797100277;OP
ЖЙМН;ЖУРРМКИУКВНПБ;26.9.1947;Strání;17. listopadu;1453;447342385;OP
Anežka;Šmídová;X;Velká Bíteš;U Jeslí;1267;1729480000;PAS
Veronika;Mašková;29.5.1973;Chrudim;Větrná;1725;1026332935;PAS
B.;Č.;1054193252;Jablonné v Podještědí;8. května;31.3.1950;;PAS
Kristián;Ježek;8.4.1950;Milovice;Hojerova;874;1431718933;PAS
Viktorie;Kubíčková;22.9.2000;Kralovice;Dědinova;1411;1321387027;PAS
Marcela;Přibylová;24.1.2013;Dvůr Králové nad Labem;Velichovská;XXXX;545666619;OP
Vojtěch;Hlaváč;12.2.1967;Cvikov;Proškovo náměstí;1643;1512353937;OP
Milada;Bílková;8.1.2010;Moravany;Brusinková;532;1402866891;OP
Pavel;Kříž;23.5.1978;Aš;U Kapličky;1493;157G335;OP
J.;Š.;3.7.1971;Unhošť;U kovárny;747;1667341447;PAS
Luboš;Hruška;2.7.1976;Kojetín;P. Jilemnického;1846;788857707;OP
Alexandra;Fialová;5.11.2004;Přeštice;Janáčkova;1052;1156691303;PAS
Michal;Jindra;1.1.0001;Ostrava;K Vrbinám;;164475028;OP
Kamil;Zajíček;24.6.1987;Mikulov;Kolonia Leśna;1486;1306239804;PAS
René;Pavelka;30.9.1975;Hradec Králové;Sídl. 9. května;;1241458307;PAS
Bedřich;Smetana;23.3.1965;Chlumec nad Cidlinou;Třebešovská;1796;1713301143;OP
Ludmila;Mikešová;20.8.1999;Ostrožská Nová Ves;Skokanská;1544;1956575536;OP
Aneta;Šmídová;X;Uherský Brod;Na Řekách;221;1837761416;OP
Adam;Kučera;1.1.0001;Loket;Řepínská;819;19379857;PAS
Klára;Fišerová;4.4.1962;Mníšek pod Brdy;U Bažantnice;1276;817249540;OP
Pavel;Holeček;438550694;Dobřany;V Roklích;28.3.1969;;OP
Kateřina;Jedličková;24.4.1973;Trmice;J. Zeyera;1262;1088676466;PAS
Lumír;Červený;6.1.2018;II;Borová;1289;1449163027;OP
Tibor;Holý;13.12.1988;Sázava;Seifertova;499;1029774417;OP
Robert;Matoušek;21.3.2002;Cvikov;Morseova;;737366389;OP
Petr;Nováček;14.11.1968;Brušperk;sídliště Osvobození;899;408675721;PAS
Filip;Starý;1.1.0001;Třebechovice pod Orebem;Radešovská;101;65426758;OP
Vlastislav;Dlouhý;1.1.0001;Žacléř;Bratří Musálků;XXXX;1004967988;OP
Jindřiška;Beranová;24.1.1974;Ivančice;Farní;;94435792;PAS
Jana;Konečná;31.8.1963;Dolní Bojanovice;Bratranců Veverkových;871;2136046143;PAS
Alexander;Holub;1.8.1965;JE;Pod vodárnou;34;2045479029;PAS
Renáta;Šedivá;NEVÍM;Bojkovice;Žukovská;;1456533431;PAS
Pavlína;Strnadová;19.7.2011;Frýdlant;Na Vyhaslém;606;625433457;OP
Martina;Mrázová;11.8.1964;Strání;Havelská;1886;695128172;PAS
Naděžda;Peterková;10.11.1960;OA;Poděbradská;121;1352580939;PAS
R.;L.;15.8.2008;Bystřice pod Hostýnem;Na Panském;849;2086103288;PAS
Břetislav;Klimeš;1.1.0001;Sadská;Luční;1676;757577161;OP
Daniel;Müller;7.6.1949;Štětí;Čížková;537;1040207978;PAS
Anna;Jedličková;20.9.1998;Dubňany;Jírovcova;1146;688357511;PAS
Bohumil;Adamec;31.5.1943;Česká Skalice;T. G. Masaryka;1743;1657436781;PAS
Rostislav;Bednář;NEVÍM;Chrastava;Na Vyhlídce;66;1071932534;PAS
XXXX;Balážová;24.10.1994;Velké Přílepy;Nad Potokem;91;1024816710;
Karolína;Šímová;8.4.1941;Velké Popovice;Jaromíra Vejvody;;1060345366;PAS
Pavlína;Kozáková;22.7.1953;Kolín;Karla Čapka;919;1946389098;PAS
Radek;Kratochvíl;NEVÍM;Jablonné v Podještědí;V Zahrádkách;862;1340977603;PAS
Eliška;Martínková;7.10.1990;Cvikov;Družstevní;1921;476733906;OP
Nikolas;Kubíček;6.3.1990;Votice;U Masných krámů;1621;1190886332;PAS
ĄĔĂďĔĔĥĞģěĚĒċĝĚď;ċăĥĀģĊęćāąċĜ;16.7.2014;Loštice;Lucínova;45;1275675472;PAS
David;Bartoň;24.10.1974;Březnice;Jablonecká;46;980070334;OP
V.;Š.;11.5.1953;Litoměřice;K Vrbě;470;375631646;OP
Vratislav;Kunc;29.1.2019;QI;Gen. Svobody;1154;1207961102;OP
ħĝĒā;ĜćċĕĂğā;13.4.2022;Červený Kostelec;K Mejtu;1408;1501979799;PAS
Р.;П.;29.1.1956;Jablonné v Podještědí;Vilapark;784;1448508268;OP
Antonín;1815712792;4.11.2008;Třebíč;Pod Kopcem;1979;957196767;PAS
Kamila;Vlachová;19.7.2004;Odry;Na Cihelně;;1857511104;PAS
Ema;Bílková;14.9.1962;QI;Spojovací;1617;1596002488;PAS
XXXX;Krátký;23.12.1961;Česká Lípa;Luční;678;58069010;OP
Eduard;Starý;12.4.1987;Police nad Metují;most Sue Ryder;913;1287896372;OP
ЖБЖЛЖТЙТСЖУ;ДЕЕРИП;7.12.2010;Dolní Lutyně;Nad Záhořím;543;426961888;OP
Kristýna;Kocourková;24.6.1948;Postoloprty;U Břízy;911;314906743;OP
Šárka;Havránková;10.7.2021;Velké Přílepy;Petra Bezruče;1477;1101020194;OP
Bohumila;Tichá;29.12.1965;Nehvizdy;Lipová;695;1862394979;PAS
Jáchym;Beran;7.5.1997;Zruč-Senec;Na Okruhu;1702;72150262;OP
Miroslav;Filip;30.2.1953;Kraslice;Lhotákova;414;993582331;OP
Stanislava;Krausová;12.6.1981;Šternberk;Na Dolíku;XXXX;1120272356;OP
XXXX;ĘċČċĘČĚĄēēĤĤďĒ;4.6.1946;Loket;Kosmonautů;788;263005110;OP
XXXX;Doležel;23.2.1995;OD;Palackého náměstí;1019;1146292044;PAS
Igor;Kolář;25.5.1960;Třemošná;U Vrbiček;;1360774563;PAS
Miloslava;Horáková;25.7.1994;Petrovice u Karviné;Kostelní;1607;329603489;OP
Erik;Vrba;30.10.1945;Cvikov;Ke Strouze;923;725511906;OP
Jindřiška;Krejčová;X;Chýně;Krátká;943;33386979;OP
УКЕЕВКМПЛЛЖИГКД;НС;2.8.1952;Roztoky;Jiráskova;1316;534451511;OP
Aleš;Hlaváč;26.5.1956;Sedlčany;U Jamborovky;1212;1165102473;PAS
Jaroslav;Kopřiva;30.8.1979;Nová Bystřice;Panelová;;1598518140;OP
Petr;Vlasák;10.9.1996;Jablonné v Podještědí;Lesní cesta Vojanka;1300;1190656724;PAS
Anna;Vondráčková;8.12.1969;Dobruška;Lesní;1878;1608073919;OP
Ondřej;Černý;X;Zruč-Senec;Na Sádkách;1375;106936822;OP
Iva;Špačková;13.9.2003;Mnichovice;Sechterova;1484;1721849364;OP
Kateřina;Zapletalová;30.11.1984;Borovany;Stoliňská;XXXX;2133685313;PAS
František;Mikeš;6.3.2013;Sokolov;Kovalčíkova;923;198Q028;PAS
Štefan;Vašíček;26.2.1945;Aš;U Rybníčka;XXXX;1613644751;PAS
B.;B.;23.8.1987;Horní Slavkov;Bartolomějská;67;1644360138;
Kamil;Liška;20.1.2017;Benešov;K Borku;745;394169273;OP
Ivana;Matoušková;20.6.1950;Sázava;náměstí Svobody;1062;69308723;PAS
Miloš;Hájek;21.1.2016;Hluk;Olivová;1806;1162330355;PAS
Marian;1659780341;23.9.2017;Kojetín;Hůrecká;1920;1986655;OP
Soňa;Kolářová;NEVÍM;Mimoň;Dolnomlýnská;1924;1237452199;OP
Dominik;Moravec;2.2.2003;Napajedla;Parys;235;1497646245;PAS
Naděžda;Matoušková;X;Šluknov;Polní;796;554N781;OP
Rostislav;Bílek;18.9.2001;Strážnice;Svaté Anežky České;598;496748326;OP
Jaroslava;Vlachová;5.8.2018;AN;Kloudova;523;1183818624;PAS
Libuše;Vránová;NEVÍM;Sušice;Jílová;1768;1769022977;OP
Dominik;1457264307;4.6.1991;Luhačovice;U Osošníku;1252;154J514;OP
František;Tomášek;20.8.1947;Klecany;Luční;1328;1680643506;OP
Miroslav;Poláček;1331853772;Luhačovice;Ztracená;29.2.1979;;PAS
БМГГЛБЛОБ;УРРЙ;24.11.1951;Hostivice;Lipová;37;160P056;PAS
Mária;Zahradníková;12.11.1987;JE;Kladinovská;785;2003177058;PAS
Lucie;Králová;20.7.1971;FJ;Na Štole;1850;1076203734;PAS
Jana;Suchá;40613562;Hostinné;Myslivecká;28.8.1973;;OP
ĥĢĠħĎĖćģĥĆąĆ;ĢĢăĕđĚ;27.2.2008;Vsetín;Sadová;793;380639186;PAS
Robin;Konečný;30.2.1959;Vrdy;Třebízského;1886;901932211;OP
Jiřina;Kadlecová;21.9.2003;Klecany;Střelniční;1033;1415779922;PAS
ĐĔĢħĊĘğĝ;ĖāēĕĝČĕĚĠĒĒĚĥĖĆě;16.8.1997;Újezd u Brna;Na Předevsi;;1248408556;PAS
Žaneta;Poláčková;1.1.0001;Zábřeh;U Sídliště;602;2075730825;PAS
Dominik;Matějka;6.11.1973;Rájec-Jestřebí;Wattova;1522;1645902822;OP
D.;B.;28.2.2023;Větřní;Vančurova;520;2051781499;PAS
Ladislava;Marešová;30.8.1967;Čerčany;Hradecká;748;380639186;PAS
Simona;Hladíková;1.1.1934;Mnichovo Hradiště;Dolnomlýnská;1300;1636422745;OP
Ivo;Havlíček;11.7.1960;Uničov;Nezvalova;758;601G921;OP
Rudolf;Havlíček;2.12.2012;Planá nad Lužnicí;Moukova;408;1868279291;PAS
Denisa;Večeřová;10.2.1970;Klášterec nad Ohří;Úlehle;970;1474385831;OP
ĆėĚĔĄĢąĉĖĀĐėđė;ĖĤēğĘćđ;594294626;Ústí nad Orlicí;J. A. Gagarina;31.3.2011;;OP
A.;P.;5.8.1955;Třinec;Mírová;1935;1526750249;PAS
Jarmila;Dudová;NEVÍM;Jílové u Prahy;Žebětínek;1407;1020711658;OP
Ladislava;Martínková;15.6.1948;Chodov;Zámecký vrch;1706;1503292792;PAS
ćĘčĞĤĒąĈĦĊĒĎČġċă;ğāĤĔĂċĖĤĒğďģ;6.12.1939;Rousínov;Žitná;1939;1112448405;OP
Jana;Stránská;11.5.1975;Bělá pod Bezdězem;Pod Skalkou;763;1789871882;OP
Renáta;Bartoňová;1376255771;Jihlava;Masarykovo nám.;15.4.1939;;OP
Lenka;Šedivá;X;Horažďovice;Na Padělkách;1158;1207188347;PAS
Miloš;Majer;1114200722;Havlíčkův Brod;Březinky;XXXX;;PAS
Ivan;Beneš;12.9.1988;Mohelnice;J. A. Gagarina;1254;666837546;OP
Kamila;Prokešová;25.3.1971;Karviná;Na Požárech;122;1722923074;PAS
Karel;Poláček;4.9.2009;Rapotín;Ke Kapličce;489;1847544903;PAS
Kamila;Váňová;12.9.1943;Čáslav;Mírová;1252;1029702036;OP
Adéla;84443718;22.5.2017;Mohelnice;Píškova;1767;1859207627;OP
Miroslav;Nový;23.6.2020;JA;Dělnická;655;1015181987;PAS
XXXX;Řezníček;1.4.1945;Sadská;Jahodová;864;1206602756;OP
XXXX;Dlouhá;30.10.1946;Ledeč nad Sázavou;Zlatnická;1703;934928743;OP
Vlastimil;Jaroš;28.2.1977;Veselí nad Lužnicí;Foglarova;1368;1847671473;OP
Ilona;Zajícová;NEVÍM;Nový Bor;U Kovárny;56;1282931801;PAS
Vlastislav;Němeček;14.6.2013;Louny;Dobrošovská;777;2129554045;PAS
František;Soukup;NEVÍM;Bučovice;Skloněná;XXXX;1229193965;PAS
Karel;Doležal;18.7.1938;Nový Jičín;V Lipkách;272;87944776;PAS
Radim;Stejskal;30.7.1973;Jílové;Západní;698;1443494410;PAS
Adéla;Jirásková;10.12.1940;Přerov;Spojařská;675;287584718;OP
Vlastimil;Malý;14.4.1996;EO;Ohradské náměstí;302;896136043;OP
Alexandra;Machová;1.10.1991;Jindřichův Hradec;Pivoňkova;XXXX;985972281;OP
Adéla;Kadlecová;7.3.1961;Vítkov;Okrajová;1473;1245388737;PAS
Bohumil;Kováč;1.4.2008;Mohelnice;Nad Hutěmi;1569;983A440;PAS
Svatopluk;Liška;12.7.1982;Slavičín;Měšická;308;1719341245;OP
Vojtěch;Řehák;X;Loštice;Dvořákova;1179;1523071142;OP
Vratislav;Sobotka;484016652;Příbor;Bohumila Hájka;27.4.2000;;OP
Diana;Kuchař;6.12.1971;Nový Bor;Za Knihovnou;741;1783985732;PAS
Vítězslav;Procházka;X;Přibyslav;Bodlákova;668;1328620820;PAS
Michael;Sláma;X;Hostinné;Krátká;1430;1798131687;PAS
Radek;Slezák;7.2.1948;Sezimovo Ústí;Větrná hůrka;1131;1183159800;PAS
Dalibor;Vondráček;NEVÍM;Moravany;K Pískovně;184;1824590950;PAS
Renáta;Jandová;18.8.1980;JJ;Františka Černého;1369;1691586457;PAS
Marie;Červená;22.1.2008;Židlochovice;Příční;1177;1131928955;PAS
L.;P.;30.9.1975;Kravaře;K Lutové;1604;1228030216;PAS
Iva;Němcová;16.8.1970;Buštěhrad;Kyjevská;1821;2077999229;PAS
Luděk;Janků;X;Kraslice;Rozmarýnová;629;1340668230;OP
ИСЕЙМВГ;ОПУЙУИВГ;15.1.1957;Zliv;Pionýrů;1231;1550166276;PAS
Kateřina;Válková;18.10.2006;Odolena Voda;Čelkovická;1088;1588006908;OP
Hynek;Jedlička;3.8.1950;Dolní Lutyně;Ulčova;74;192T519;OP
Františka;Kvapilová;23.10.1958;Vodňany;náměstí Pod Lípou;535;1279266600;PAS
Jarmila;Štěpánová;25.5.2019;Kladno;Dlouhá;1750;1994542298;OP
ēąĔĚĉĖĝć;Ĕė;22.11.1950;Modřice;U střediska;1131;1245519354;PAS
Šárka;Kubíková;X;Mosty u Jablunkova;Heleny Kočvarové;462;1680417590;PAS
Růžena;Černá;1.10.1972;Břeclav;Fučíkova;168;1110167556;PAS
ЖМЕГЖИИПТЙЗПЗС;ИГБЗТАГБЖБТН;23.5.1939;EG;V Prokopě;493;1994352630;OP
Milena;Šebestová;28.10.1963;Litoměřice;Na Pěšinách;1029;2045369821;PAS
Jiří;Jílek;17.6.1942;Dolní Břežany;U Naděje;1324;1192144593;OP
Svatopluk;Kořínek;X;Háj ve Slezsku;17. listopadu;390;1232305899;PAS
Marcela;Kroupová;1.10.2017;Brtnice;Ponrepova;220;862741406;OP
Viktor;Kopecký;29.3.1972;HM;Rožďalovická;964;1689955646;PAS
Hynek;Kadlec;19.3.2019;Pohořelice;Na kopci;360;2138024751;PAS
Petr;Starý;NEVÍM;Hostinné;Revoluční;382;1194747361;PAS
Kristián;Březina;18.6.2005;Nové Město na Moravě;J. Nerudy;890;1473656163;PAS
Eliška;Řezníčková;X;Varnsdorf;Mařinková;1405;1280869979;OP
Hana;Černá;16.6.1947;Hostinné;Koroptví;1139;1453305502;PAS
Vít;Pavlíček;20.8.1970;Kroměříž;Krátká;24;928973821;OP
Viktor;Duda;16.6.1982;Štěpánov;Čelakovského;1882;2138024751;PAS
Miluše;Turková;8.11.1966;Vlašim;Za Elektrárnou;928;589497752;OP
Samuel;Tůma;8.3.1962;Chlumec;Záhumní;630;663A153;OP
Lumír;Holub;23.9.1998;Pečky;V Oklikách;1643;2142119966;PAS
XXXX;Vítková;22.12.1995;Nýrsko;Panklových;209;1054022498;PAS
Libor;Hruška;11.7.1992;Meziboří;Jaroslava Kruckého;XXXX;552686284;OP
ЖАСИБДЖБНЙПИЛЙВТ;УООСОННЗОУСУМТП;7.1.1970;Zašová;Luční;1375;1844303995;OP
Tibor;Kučera;26.6.1978;Chotěboř;Nový Svět;1921;44842086;OP
Oliver;Bartoň;28.5.1947;Roudnice nad Labem;Letzelova;1247;1098074398;OP
R.;H.;24.12.1959;Nymburk;Voskova;902;1982183749;OP
Radek;Musil;12.6.1947;Telč;Stojanovo náměstí;1615;136234768;OP
Julie;Červenková;15.4.2005;JG;Studená;1298;2138024751;OP
XXXX;Horváthová;3.6.1951;Přibyslav;Kecova;1484;132027250;OP
Samuel;Urban;41069435;Kyjov;Hilbertova;26.11.1951;;PAS
David;Čížek;27.8.1949;Kravaře;Budovatelů;15;1206676971;OP
Svatopluk;Vlasák;NEVÍM;Chodov;Ke Studánce;437;977756211;OP
Nela;Březinová;4.5.1955;Broumov;Zahradní;103;1460891025;PAS
Radomír;Adámek;3.12.1955;Polná;Javorová;296;1084836329;OP
Barbora;44913443;7.3.1992;Suchdol nad Lužnicí;Sv. Čecha;239;42454562;PAS
Aneta;Bílková;1.1.0001;Stod;Pražská;1289;1740756843;PAS
Jana;Burdová;NEVÍM;Zruč-Senec;Češovská;1007;872720381;OP
Marcela;Hájková;10.1.1961;Mnichovo Hradiště;Nerudova;XXXX;1858137623;PAS
Alexander;Jaroš;1.1.0001;Horoměřice;V Jezerách;1668;1413547893;OP
Tadeáš;Pokorný;9.5.1938;Rýmařov;Generála Selnera;600;1862828394;OP
Danuše;Kubíková;18.10.2017;Holice;Pod Vrškama;957;199A282;PAS
Alice;Kolářová;31.9.1966;Jilemnice;K Větrovům;;1475814410;PAS
Vlasta;Přikrylová;24.5.1967;HS;K Úvozu;1785;74074248;PAS
Robin;Fojtík;1.1.0001;Větřní;U Střelnice;757;252284089;OP
Václav;Šulc;NEVÍM;Náměšť nad Oslavou;Černovičky;1181;316734392;OP
Iva;Krátká;27.4.1954;Horní Suchá;Herrova;620;1050791922;PAS
РНС;ЗМСПМСИЛБЙЗНК;8.11.1993;Hronov;nám. Mikuláše z Husi;1186;754992933;OP
XXXX;Klímová;25.8.1971;Ždírec nad Doubravou;Pod zahradami;217;1976378002;PAS
ČĎğĤĂĕğĞĄĊďĥĘĤąě;ĚĉăĀ;7.12.1972;Lysá nad Labem;Na Výhledech;570;1739943636;OP
Emil;Beránek;NEVÍM;Lutín;Králodvorská;1418;1547679288;PAS
Kateřina;Balážová;17.11.1973;Nová Paka;Zálužská;1804;1824806608;PAS
XXXX;Pešek;19.8.1983;Bystřice;V Ohradách;386;1550306941;OP
Ema;Benešová;14.6.1962;Sušice;Údolní;482;1430949998;
Sabina;Marková;30.7.1969;Meziboří;Slavíková;1956;293397693;OP
L.;H.;18.12.1958;RJ;Slavíková;1297;1612170137;PAS
Dagmar;101640664;2.12.1973;Žirovnice;Na Malé Růži;547;591376759;OP
Drahomíra;Straková;1.3.1936;Líbeznice;Žatecká;;1963280025;PAS
Matouš;Hanuš;31.2.1985;Borovany;Otrubova;553;1807065660;PAS
Bohumil;Ondráček;15.9.1950;Háj ve Slezsku;Okružní;125;2124788370;PAS
Kristián;Veselý;23.1.1985;Rožnov pod Radhoštěm;Březinky;796;1452162787;PAS
Tibor;Macháček;31.2.1992;Králíky;Nové domky;1736;571609200;
Sabina;Vlasáková;21.11.1986;Trmice;Široký vrch;184;1872460314;PAS
Dana;Pechová;X;Trutnov;Polní;1332;1529034033;PAS
Sofie;Urbánková;1.1.0001;Tanvald;Za řekou;293;1651536935;OP
Žaneta;Hlaváčková;22.11.2001;Buštěhrad;Troskovická;501;1253907012;OP
Milada;Kašparová;29.9.1944;Mohelnice;Klánova;672;293397693;OP
Dana;Vaňková;25.1.1941;Tachov;Sladkovského;239;1399557133;PAS
Alexandr;Zelenka;18.6.2002;Blovice;třída Míru;321;345011848;OP
Bohuslav;Chaloupka;21.6.1973;Opava;Nad Tejnkou;1374;300463074;
Rudolf;Dvořáček;NEVÍM;Rosice;Adamcova;1838;1242886605;PAS
Simona;Konečná;5.4.1970;Strání;Jindřicha Konečného;1541;1321704372;PAS
XXXX;Kroupová;2.2.1960;Jilemnice;Blatenská;1905;1825452069;OP
Anna;Červenková;2.10.2006;Mutěnice;Na Sídlišti;520;1691452758;OP
Svatopluk;Kuchař;29.6.1958;Králíky;Pelikánová;XXXX;1131818039;PAS
Magdalena;Hofmanová;1202769320;Rychnov nad Kněžnou;Ke Křížku;16.6.1964;;PAS
Erik;David;2.1.1996;Úvaly;Od Cholupic;280;1730680184;OP
Marian;Vítek;25.9.2021;Kdyně;Pod Strání;251;253753300;
Marcel;181327638;4.6.1964;Havlíčkův Brod;Za Šmatlíkem;1057;293397693;OP
Milan;Řehák;2.2.1974;Vendryně;Votuzská;1319;183J087;PAS
Sára;Kroupová;1147430121;Rapotín;K Muzeu;XXXX;;PAS
Alexandr;Kozák;18.3.1949;Hořovice;Werner-Seelenbinder-Straße;1154;1357150898;OP
Kateřina;Špačková;20.6.1990;Hlubočky;Ferlesova;57;1826881796;PAS
Nikolas;Černý;3.6.1964;Bystřice nad Pernštejnem;Ke Kastrolu;1899;1684768576;OP
ĜĔĢĞĞ;ĎďčĠĊďĉĞěė;15.9.1987;Rychvald;Josefa Maruny;1519;1772834048;OP
Dušan;Malý;6.10.1945;Vracov;Mechová;254;1094926016;PAS
Radka;Havlová;26.5.1997;Choceň;Vlasty Hilské;1710;1572878102;OP
Adam;Sládek;4.6.2023;Benátky nad Jizerou;Proti Škole;1035;1925632556;PAS
Štěpánka;Petříková;NEVÍM;Odry;Chocholova;829;1459017856;OP
Věra;Němcová;21.11.2022;Rokycany;Na Vyhlídce;1383;2093149669;PAS
Naděžda;Musilová;X;Nová Role;K Zámku;1565;1017909254;OP
Emilie;Stehlíková;1.10.1989;Mosty u Jablunkova;Za Farou;511;502698706;PAS
Eliška;Kučerová;7.11.1987;Velká Bystřice;Tyršova;1556;44944731;
Denis;Koudelka;8.8.1971;Mladá Boleslav;Anglická;1271;858832607;OP
Karel;Slezák;X;Litovel;K Hůrce;1581;228547262;OP
Josef;Brabec;NEVÍM;Zruč nad Sázavou;sídl. Budovatelů;223;1700986126;OP
XXXX;Zeman;25.2.1941;Frenštát pod Radhoštěm;Podlahova;224;1874835144;PAS
Jan;Coufal;14.1.1955;Milovice;Spojovací;133;17009974;PAS
Kryštof;Mikeš;11.5.1954;Dolní Břežany;U kovárny;1683;1390590418;OP
Břetislav;Blažek;11.6.1940;Dolní Bojanovice;V Lukách;1741;1422694413;OP
Růžena;Procházková;11.7.1952;Vrbno pod Pradědem;Pod Bručnou;12;597830744;OP
Adéla;Sládková;26.5.1935;Hostinné;U Sauny;481;1584598885;PAS
Radim;Kříž;30.11.2011;Lutín;K Hnízdům;1168;2068978083;PAS
Radomír;Kopecký;17.3.1935;Město Albrechtice;K Hradišťátku;104;1583850425;PAS
Lukáš;Smetana;19.12.1944;Nový Jičín;Nová;XXXX;1892315961;
ħČĐĎĆĠĂ;āĆĀāğėąĜ;2.7.1983;Velké Pavlovice;Křovinovo náměstí;778;293397693;OP
Otto;Jelínek;X;Žďár nad Sázavou;V zahradách;113;2103776825;PAS
Filip;Krejčí;27.2.2007;Desná;Borovanská;601;90828261;
Anna;Hrdličková;X;Velké Popovice;Fučíkova;790;2143469632;PAS
Miloslava;Čejková;1858316998;Police nad Metují;Parková;11.5.2009;;PAS
Kryštof;Šťastný;2.10.1944;Litoměřice;Dolní;531;1793941779;
Alena;Tichá;627655316;Horní Slavkov;Mezi Alejemi;22.7.1972;;OP
Lucie;Zajícová;1.1.0001;Valašské Meziříčí;U Rokytky;1730;1300954754;PAS
Michal;Sládek;NEVÍM;Hranice;Zahrádkářů;802;1627834731;PAS
Štěpán;1151761834;4.11.1973;Habartov;U Parku;1345;229246677;OP
Břetislav;Trnka;20.3.2006;Sokolov;Národní;401;932L767;OP
Iveta;Prokopová;23.1.1935;Štětí;Kocourkova;911;1719887198;OP
Monika;Valentová;16.4.2012;Náchod;Foglarova;1340;54861092;OP
Lenka;Malíková;4.3.1936;Rakovník;Brusnicová;1530;1232067039;PAS
XXXX;Mráz;1.1.0001;České Budějovice;Chelčického;351;1977918367;OP
Viktorie;Zajíčková;15.6.1989;Horšovský Týn;Naardenská;122;1575752898;OP
Patrik;Kozák;22.11.1964;Bakov nad Jizerou;Na Paloučku;1687;2066522904;PAS
Markéta;Fišerová;9.11.1990;Česká Kamenice;Pod Vsí;555;1040983894;PAS
Alena;Dvořáková;12.7.1986;Jablunkov;Sedlecká;1512;112H800;OP
Marcela;Řezníčková;1.1.0001;Bystřice pod Hostýnem;Krajní;875;1833873395;PAS
Danuše;Daňková;31.11.1945;Orlová;Turínská;1316;1007006726;OP
ĦĒĒģěĀ;ĜĊĤģĂĠğĜęġēąĂġĆ;7.3.2002;Fulnek;Akátová;322;1286160569;PAS
I.;K.;17.9.2008;Loštice;Sportovní;838;1900565602;PAS
Štefan;529480636;NEVÍM;Broumov;Čsl. armády;1477;2145363508;PAS
ēğěđČĚēĦċĦĦĕČ;āĜĆĐĜĉĜ;1.6.1992;Aš;Na Pěšinách;1080;1461245678;PAS
Ladislav;Kuchař;23.1.1997;Kuřim;Luční;262;1382016534;PAS
Milan;Pavlík;26.4.1940;Veselí nad Moravou;Vodní;675;705949509;OP
Nikol;Brožová;1.12.1972;Vrdy;Ledečská;;536302044;OP
ēđěğħĖĚęęĜāĘćėĀ;994848764;20.9.1946;Rychnov nad Kněžnou;Červenková;170;1544827088;PAS
René;1817899804;4.10.2016;Zdiby;Císařova;1813;1533308558;PAS
Vítězslav;Klimeš;31.7.1959;Český Brod;Pod Hájem;710;1602987305;PAS
Arnošt;Kovář;1.9.2003;Boskovice;Borotínská;643;1009824625;PAS
Milan;Šedivý;17.9.1935;Protivín;U Brusnice;718;1404010779;PAS
XXXX;Havelková;23.11.1954;Černošice;Safírová;170;530830914;OP
ĂčČĘėĦĉ;ĤĂĎėĀĀĂĞČč;13.8.2006;Strakonice;Poštovní;;1700232037;PAS
Ludmila;Matějková;7.1.1993;Nýřany;Na Dělostřílnách;XXXX;1053825105;PAS
Drahomíra;Přibylová;21.11.1995;Hrádek nad Nisou;U Střelnice;1306;1574232784;
Filip;Baláž;8.2.1999;Bystřice nad Pernštejnem;Kališnická;1752;1927958058;PAS
Matouš;Staněk;13.1.1982;Prachatice;V Cihelnách;2000;157G301;OP
ĞĆĔĔĆĄē;ĄđėģěĖĜĝĈĄĕěćċĕĠ;1.1.0001;Poděbrady;Elišky Krásnohorské;787;444295295;OP
Ladislav;Jedlička;26.12.1993;Brumov-Bylnice;Jabkenická;466;1246623354;PAS
СУАВ;АЖЕИДЖДГМПГЕИЙЙУ;1.4.1962;QJ;Filištínská;1004;1328645771;PAS
Emilie;Štěpánová;NEVÍM;Praha;Bystrovanská;860;690526923;OP
Mikuláš;Diviš;8.6.2015;Dvůr Králové nad Labem;Zieglerova;517;1809498722;PAS
XXXX;Radová;1.11.1939;Beroun;Dvořákova;152;840851043;OP
Zdenka;Zajíčková;4.11.2009;Rudná;Velichovská;819;1657973210;PAS
Danuše;Součková;10.10.2004;Zliv;U Výstaviště;;1058745096;OP
Ladislav;Horáček;16.4.1945;Bystřice pod Hostýnem;Sportovní;1537;1807326199;OP
Viktorie;Dlouhá;10.6.1945;Svatobořice-Mistřín;Englerova;1823;488752956;OP
Radoslav;Sedlák;12.9.1972;Česká Třebová;Nerudova;682;1689206233;PAS
Radovan;Toman;5.10.1935;Liberec;Slunečná;1060;1928808226;PAS
J.;T.;29.7.1946;Kamenice nad Lipou;Kuní;630;1295544678;OP
Daniela;Žáková;13.12.1934;Prostějov;Červená Skála;802;1882931738;PAS
Barbora;Doležalová;11.4.2016;Dolní Břežany;Bukovická;1590;810362216;OP
XXXX;Holá;5.2.1954;Česká Kamenice;Winklerova;1483;636826564;OP
Stanislav;Kozák;1.1.0001;Blansko;Jasanová;1373;1923681620;PAS
Vlasta;Trnková;1998218495;Kostelec nad Orlicí;Kubova;1.8.2006;;PAS
Kateřina;Vacková;7.11.1979;Desná;K Holosmetkům;1576;1453843215;PAS
Nela;Ježková;2.3.2017;Brandýs nad Labem-Stará Boleslav;Budovatelů;579;1483792077;PAS
Linda;Horváthová;8.3.1966;Zeleneč;Nad zatáčkou;XXXX;1236986883;OP
Vratislav;Žák;16.7.1950;Štěpánov;Vitická;1841;1653553042;PAS
Evžen;Sobotka;24.3.1999;Buštěhrad;Masarykovo náměstí;;1084588226;OP
Simona;Mašková;15.3.2004;Smiřice;Brožíkova;378;2013127945;PAS
Blanka;Malíková;29.11.2009;Otrokovice;Nad Roklí;484;1453843215;OP
Jiřina;Valentová;27.10.1994;Velké Meziříčí;K Jezu;1244;1729931725;PAS
Petra;Ondráčková;30.10.2012;Bílovec;Masarykovo náměstí;1088;1288037093;PAS
Marek;Štěrba;16.11.1939;Otrokovice;Střední;164;1427308794;OP
Miroslav;Hofman;535693726;Petrovice u Karviné;Harrachova;9.1.1934;;OP
ďĕ;ĐāĜĄĀąĝďČėġđĀċģĢ;31.12.2023;Nýřany;Desátková;48;1488076604;PAS
Miluše;Michálková;NEVÍM;Mohelnice;Mšecká;1637;1409536321;PAS
ĈĜĐĀĄăġĝ;ĄğĞčģĒĢďĎĂĢģčĢ;9.1.1937;Velká Bíteš;Borovicová;852;1714220062;PAS
Bohumila;1377124202;24.8.2013;Hrušovany nad Jevišovkou;Saturnova;264;603295900;OP
Adam;384037308;NEVÍM;Sadská;Lidická;1302;675167152;OP
Bohumila;Bartoňová;3.4.1982;Pečky;Unhošťská;196;1966366681;PAS
Radomír;Mráz;29.5.1972;Chotěšov;Lávová;1050;1457525383;OP
Renata;Kadlecová;4.12.2013;Palkovice;U Javoru;1952;140O536;PAS
Kamila;1207263658;8.12.2010;Vracov;Na Štěpnicích;1822;814940387;OP
Matěj;Poláček;12.4.1960;QE;České Vrbné;832;714399030;OP
Anežka;Komárková;X;Ivančice;Terasy I;1845;1249382891;OP
M.;P.;X;Jaroměřice nad Rokytnou;U Věže;660;98521491;OP
Anežka;Němečková;18.12.1955;CC;sídliště Osvobození;649;1723215729;PAS
XXXX;Kuchař;X;Boskovice;Okružní;153;1353607994;PAS
Miluše;1777741457;25.5.1975;Loket;Václavská;1192;1589379792;
Adolf;Bartoš;6.5.2017;Pohořelice;Potoční;;1329605201;PAS
Z.;T.;7.7.1995;Teplice;Palackého náměstí;494;1681410056;OP
Denisa;Pokorná;20.11.2007;Sázava;Jiřího Wolkera;89;1596932677;PAS
Eduard;Karásek;7.11.1983;Prachatice;Thunovská;1327;1655186896;OP
Petr;Kováč;21.4.1967;Žatec;Na Račanech;1241;1453843215;OP
Adolf;Havlíček;19.4.1945;Brušperk;Na Pěšinách;1650;1789858582;PAS
Dana;1835537632;18.2.1976;Kostelec nad Černými lesy;Nádražní;522;1892155755;OP
Romana;Slezáková;7.10.1939;Palkovice;Za Veterinou;1260;620790279;OP
Adéla;Kašparová;31.2.1974;Ivančice;U Vodojemu;1589;1581744620;PAS
Viktorie;Radová;X;Ostrava;U brány;1948;1510260415;PAS
Jaroslava;Horká;23.12.1969;Lázně Bělohrad;Jedlová;;279039251;OP
ĀĈĜĘĝħăĦĖĆęĒĉĀ;ĘąđČĊĉđ;1.5.1966;Havlíčkův Brod;U Dubečské tvrze;87;1119224039;PAS
Romana;Ptáčková;1777654922;Bílina;Za Kopečkem;21.11.2002;;PAS
Alexander;Přibyl;21.2.1970;Králův Dvůr;U Dubu;1322;1346410015;OP
Radka;Mrázková;784120451;Milevsko;Na Blatech;9.10.1992;;OP
XXXX;Březina;31.12.2007;Horní Slavkov;Čížovky;113;1553145796;PAS
Viktor;Kováč;17.11.2022;Tlučná;U střediska;363;1420394125;OP
Tadeáš;Blažek;149F288;Železný Brod;Chelčického;11.6.1971;;PAS
Dominik;Duda;24.9.1974;Mladá Boleslav;Lužanská;XXXX;2059346480;PAS
Romana;Sýkorová;1.1.0001;České Velenice;Votuzská;1852;199N714;OP
Tomáš;Kratochvíl;18.8.2014;Vejprnice;Zátoňská;1812;1368471139;
Ivo;Jindra;22.5.1967;Prachatice;Spojovací;1238;704347638;OP
Bohuslav;Coufal;12.8.1954;Petřvald;Řezáčovo náměstí;99;1760911870;PAS
J.;J.;19.7.1934;Most;Křišťálová;373;325268470;OP
A.;H.;28.7.1997;Týniště nad Orlicí;Rerychova;471;1487431306;PAS
Alexander;Zahradník;31.11.1985;Nová Role;Staré Podolí;658;1115740708;PAS
Oliver;Chalupa;28.7.1942;Dobrovice;V Olších;307;1697469599;PAS
Lukáš;Slavík;NEVÍM;Plzeň;Měšická;;1776671491;PAS
Jindřiška;Adamcová;26.3.1963;Jirkov;17. listopadu;134;1631164757;PAS
Robert;Poláček;1.1.0001;Jesenice;Na Stráni;1080;1449402956;PAS
XXXX;Lišková;14.8.1939;Boskovice;Rolavská;567;47369069;OP
Mária;Kozáková;14.2.2021;Týnec nad Sázavou;Podohradská;301;1130334413;OP
Dagmar;Horká;2.12.1939;Frenštát pod Radhoštěm;Podubí;1735;2005652140;PAS
Michael;Konečný;19.5.1965;Šumperk;Lísková;93;322098050;OP
Miroslava;Tomková;20.11.1967;Opočno;K Lávce;1212;168B286;OP
Viktorie;Martinková;16.7.1945;Příbor;náměstí 28. října;973;86732004;OP
Zdeněk;Šíma;282870851;Lipník nad Bečvou;Žižkova;1.7.2011;;OP
Ludmila;Staňková;1.1.0001;Luka nad Jihlavou;A.M. Toskánské;1515;47369069;PAS
XXXX;Čermák;18.5.1957;Jaroměř;Dědinova;1384;28789547;OP
Soňa;Lišková;17.5.2004;MB;Na Šejdru;XXXX;296538132;OP
Kamil;Žák;1.1.0001;Rudná;Na Svahu;1338;1186945839;PAS
Gabriela;Švecová;4.11.1935;Benátky nad Jizerou;Einsteinova;;1389583479;PAS
Michal;Volf;7.6.1981;Horoměřice;Ponrepova;1170;47369069;PAS
Dominik;Klíma;1.1.0001;Ratíškovice;Staňkova;316;1011000499;OP
Zdenka;Linhartová;9.1.1969;Rožmitál pod Třemšínem;Ledkovská;437;1824261445;PAS
Jozef;82318895;26.5.1968;Lysá nad Labem;Potoční;507;2005603060;PAS
Richard;Matoušek;401957957;Chrast;Zimní;20.8.1936;;OP
Luděk;Vrána;5.10.2002;Poděbrady;Nové domy;558;1423340813;PAS
Lubomír;Horký;29.5.1978;Jablonné v Podještědí;Budovatelů;1192;1964322723;PAS
Kristián;144574663;17.5.1949;Černošice;U Zájezdku;1557;599943386;OP
Jáchym;Trnka;23.11.1972;TK;Korejská;837;695574453;OP
Milada;Vašková;X;Hostivice;Diviznová;710;993227168;OP
Šimon;Zajíček;21.4.1946;Šenov;Na Padesátce;213;1181100504;PAS
Pavel;1204502010;17.3.1957;Ústí nad Labem;Bosonožské náměstí;859;1280622759;PAS
Svatopluk;Jindra;15.3.1948;Beroun;Češovská;1396;1202207682;PAS
Pavel;631665434;19.12.2018;Velešín;Nádavky III (218-238);668;1947492695;PAS
Nela;Kohoutová;16.7.1965;Lišov;Staňkova;1288;2144750567;PAS
Renáta;Konečná;11.9.1934;Ratíškovice;Babylonská;852;1685459173;
Žaneta;Krátká;30.1.1970;Bystřice nad Pernštejnem;Karla Vokáče;577;760931115;PAS
Michaela;Čížková;7.1.1985;Uherský Ostroh;Máchova;1370;760931115;PAS
Magdaléna;Fojtíková;X;Bohumín;Na Výsluní;1473;1497595314;PAS
ĞĦ;ąğĄ;27.1.2020;Prachatice;Na Okruhu;125;1176840249;OP
Iva;Bartoňová;22.4.1979;Tachov;Hluboká;982;1732271475;PAS
Bohumila;Klimešová;25.1.2002;Úvaly;V Ráji;797;1428336830;OP
Miroslav;Horváth;5.7.2001;LK;Holická;1552;1910313088;OP
Iva;Boháčová;14.1.1987;Holešov;U Boru;877;1264976371;PAS
Rostislav;981343611;11.1.1995;Klecany;Truhlářova;1554;1020766684;OP
Vendula;Růžičková;4.2.2004;Chrast;Studniční;;83900916;OP
Eliška;Ševčíková;8.10.2012;Šumperk;K Brdci;1072;1236557929;OP
Rudolf;Sedláček;24.7.2018;Jičín;Turínská;96;292663963;OP
Zuzana;Slámová;27.12.1936;Trhové Sviny;Sídliště;1950;53130235;PAS
Marcel;Sobotka;X;Smiřice;U Potoka;471;1285401128;PAS
Viktor;Dlouhý;4.9.1953;Řevnice;Dřevařská;320;1195071948;PAS
Ján;Kubát;21.5.2012;Břeclav;náměstí Gen. Vicherka;185;1353177972;OP
XXXX;Štěpán;24.1.1943;Humpolec;Plečnikova;294;147001698;OP
Jana;Pokorná;1.1.0001;Rýmařov;Husovo náměstí;839;1691476640;PAS
Kristýna;Janečková;1.1.0001;Přeštice;Na Lukách;1730;1102811557;OP
XXXX;Kadlec;4.4.2006;Horní Suchá;Matjuchinova;904;1627770314;OP
Kristián;Michálek;22.8.1978;Lanžhot;Rychetského;1018;1071896736;PAS
M.;K.;2.6.2019;Zbýšov;U Studánky;385;391557823;OP
Helena;Tomášková;1.1.0001;Dolní Břežany;Ke Kovárně;1113;1788227564;
Mojmír;Čapek;28.10.1948;Chropyně;Branická;1805;74661834;OP
Karel;Václavík;1.9.1975;Kyjov;Krátká;1946;1948820618;PAS
XXXX;Volfová;26.12.1956;Kralupy nad Vltavou;Do Průhonu;769;1025934271;PAS
M.;K.;14.11.2022;Bakov nad Jizerou;Ovesná;33;1971932315;OP
Alice;Kroupová;2.11.1978;Vratimov;Od Cholupic;1770;1245431545;OP
Naděžda;Hanáková;27.1.1966;Větřní;Na Strážišti;1212;1366951161;OP
Vlasta;Šebestová;27.1.1982;Heřmanův Městec;Za Humny;811;1153928033;OP
Denis;Volf;8.10.1970;Smržovka;Luční;;1538240383;OP
Zbyněk;Beránek;16.11.2001;Stochov;Michalská;243;465227319;
Daniel;Dlouhý;11.12.1962;Smržovka;Musilova;1046;1207288169;PAS
Ludvík;Kovář;5.8.1982;Telč;Kovářská;1216;1567576198;
K.;Z.;20.10.1981;Miroslav;Pastevců;604;1592884935;OP
Miroslava;Jirásková;22.12.1959;Karlovy Vary;Mírová;1154;962190641;OP
Šárka;Benešová;11.11.2008;Střelice;Nová;1718;1708256978;PAS
Erik;Kunc;2.11.1978;Zliv;Za Chalupami;931;20981225;
XXXX;Macek;14.1.1989;Choceň;U Ovčárny;382;1456125782;PAS
Danuše;Bednářová;22.1.1965;Chodov;Minaříkova;939;1005907703;OP
Ilona;Lišková;18.10.1958;Lišov;Karolinská;560;90999025;PAS
Drahomíra;Štěpánová;5.10.1961;Mělník;Staňkova;469;1519180006;PAS
Arnošt;Kohout;9.12.1984;Chlumec nad Cidlinou;Na Gruntě;920;1850838830;
Robin;1308169917;15.7.2006;Staňkov;Burianova;1229;984040290;OP
Radka;Dufková;21.1.1973;Ostrava;Aldašínská;1795;1359207799;PAS
Sebastian;Řezníček;1439548107;Kuřim;Úzká;9.5.1963;;PAS
Oldřich;Linhart;3.2.1966;Sušice;Na Račanech;336;1455699866;OP
Markéta;Hanušová;16.5.1978;Lysá nad Labem;Na Horku;1199;12088814;PAS
P.;N.;8.7.1985;Kozlovice;Na Křtině;1254;1245617195;PAS
Eva;Chalupová;14.9.2012;Votice;Polní;237;939391153;OP
Dana;Poláková;17.6.1996;Město Albrechtice;Barvičova;19;170K054;PAS
XXXX;Gregorová;4.4.2001;Lázně Bohdaneč;Dolní Předměstí;83;43204729;PAS
ģěčĞġďĂĄĖğ;ąĢĠĘĖėčĊąě;21.9.1978;Skuteč;Na Výhledu;1957;1558952826;PAS
Alex;Bláha;30.2.2021;Šlapanice;Husovo náměstí;1498;1254186737;OP
Zdenek;Urban;22.8.2021;Zliv;Martinelliho;1215;1590712121;PAS
XXXX;Janda;8.1.2017;Červený Kostelec;Pod Vodárnou;958;2005689773;PAS
ēġĖĒă;ĝąĎčĥĝĐęďĊĒČěĢĝĢ;1.7.2012;Turnov;Toskánská;;182472978;OP
УИАВАМИП;ВЛКНТО;11.12.2021;Votice;Zvonková;817;2101967392;PAS
Alžběta;Komárková;1.2.2020;Vodňany;Fryčajova;789;1761840225;PAS
ĢĤč;ħėĤĒĠħĠĎ;12.1.2001;Kosmonosy;Dvořákova;535;1860703791;PAS
Alexandr;Adamec;1.1.0001;Albrechtice;Zeyerova;1595;51631440;PAS
Miloš;Švarc;13.10.1934;Adamov;Hluboká;328;1090328867;PAS
Květoslava;Ptáčková;3.11.1947;Lišov;U Zlaté stoky;794;528664085;OP
Žaneta;Dohnalová;7.9.2010;Kralupy nad Vltavou;Čáslavská;956;1669736128;PAS
XXXX;Jaroš;17.12.1966;Červený Kostelec;Pod Křížkem;1513;1219985037;PAS
Zbyněk;Zahradník;11.5.2002;Ústí nad Labem;Družstevní;661;1982264141;PAS
Milan;Adámek;NEVÍM;Toužim;Vodárenská;1521;1124185428;OP
Kateřina;Bláhová;13.12.2004;Havlíčkův Brod;Nechvílova;217;1815715796;PAS
Libor;Ondráček;31.10.1977;Štěpánov;Jantarová;1962;1322835139;
Štěpán;Navrátil;27.7.1934;Opava;Nerudova;298;1910888102;
H.;V.;12.10.1976;Psáry;Klokotská;653;1366011260;OP
Markéta;Doleželová;1807082916;Kostelec nad Černými lesy;Babylonská;21.8.1993;;OP
Přemysl;Soukup;1831707831;Jesenice;Masarykovo náměstí;4.7.1967;;OP
Dušan;Vlček;18.11.2009;Český Brod;Školní;1027;1370701129;OP
Dalibor;Slavík;5.4.1977;Bílina;K Pitkovicům;XXXX;1500313591;PAS
Marie;Machová;29.5.2005;Dačice;K Cestkám;33;606930630;OP
Renáta;Hofmanová;17.10.1956;Vamberk;Doubická;XXXX;1844246030;OP
Radim;Beneš;20.5.1985;Milevsko;Kolébka;1633;223416924;PAS
Patrik;Kočí;30.6.1955;Štěpánkovice;Samcova;579;1543173747;PAS
Eva;Vašíčková;6.10.2001;Frýdek-Místek;U Staré tvrze;1091;1410381030;PAS
Eva;1041255364;26.4.1940;Velký Týnec;Studánková;1026;72002400;PAS
XXXX;Strnadová;NEVÍM;Velká Bíteš;Na konci;1200;1225869958;PAS
Emilie;Čížková;4.2.1937;SS;Pláteníkova;1793;1188986560;PAS
Miroslava;Zapletalová;1.12.2004;Nepomuk;Hudební;215;2003024440;PAS
Karolína;Holá;1.11.1953;DF;Proskova;1581;1126330202;OP
ЖЙКЖГВИУЙЛБ;ДПГАБСЛМВС;29.1.1987;Rapotín;Za Farou;1171;1495150953;PAS
Radovan;Sládek;X;Luka nad Jihlavou;Rolnická;446;1590602224;PAS
Ondřej;Sýkora;27.4.1937;Třebíč;Vidoulská;162;593526895;
Arnošt;Kratochvíl;NEVÍM;Střelice;Na Sídlišti;430;1957396684;PAS
Jiřina;Kuchařová;31.9.1947;Třeboň;Náhorní;1204;137002829;OP
Miroslav;Vlček;27.8.1966;Strání;Hodňov;1194;1380331442;PAS
Magdalena;Soukupová;28.3.1998;Staňkov;Kohoutova;;705098140;OP
Sofie;Bartoňová;9.8.1976;Havířov;Větrná;308;970719681;OP
Jonáš;Smetana;11.3.1974;Vrbno pod Pradědem;Nehrova;247;1582184149;PAS
Zdenka;Nosková;22.8.2006;DL;Pitterova;1365;1060738285;PAS
Bohumil;Nováček;NEVÍM;Úvaly;K Labi;284;1252170315;OP
Vladimíra;Stará;27.11.1990;Ostrava;Kališťská;1066;1751397317;
Emilie;Balážová;26.1.1935;Osek;Východní;456;1111310935;OP
Marcela;Hofmanová;X;Jesenice;Komenského náměstí;125;701760576;OP
Pavla;Kohoutová;22.5.1974;FL;Ke Studánkám;53;1090328867;PAS
Šárka;1610322926;15.4.1991;Velká Bíteš;Kožíkova;932;1135196267;OP
Daniela;Kvapilová;NEVÍM;Vracov;Běchorská;390;69940255;OP
Aneta;Kašparová;X;Rýmařov;Skloněná;1774;412F231;PAS
Iveta;Jílková;5.12.2011;Soběslav;Balbínova;874;133B996;OP
A.;P.;23.5.2002;Horní Suchá;U Jamské;215;174126877;OP
XXXX;Pokorný;23.1.1946;Štěpánov;K Lesu;1616;1761945297;OP
Mikuláš;Pospíšil;1.1.0001;Doksy;Za Kovářským rybníkem;1000;1535157737;OP
Rostislav;Kořínek;6.9.1987;Prachatice;Lipová;XXXX;1796612726;PAS
Jiřina;Bauerová;29.6.1950;Trutnov;Burianova;;1246038449;PAS
ĥČć;āġĜħĀĈĀĜėėĢ;3.10.1987;Jablunkov;Dolnomlýnská;1038;1129182173;OP
Zdeněk;Karásek;4.7.2018;Kravaře;Jívanská;738;506468683;OP
Aneta;Adámková;1.1.0001;Jílové u Prahy;sídliště Osvobození;1264;1780162794;PAS
Veronika;Vlasáková;6.2.2002;Odolena Voda;Dlouhé vrchy;704;1161569879;PAS
ċćĎĢē;ģĦąċăĝčĤĚďĜĞ;30.11.2023;Miroslav;Východní Stráň;251;927312377;OP
Vojtěch;Coufal;NEVÍM;Valašské Klobouky;U Kulturního domu;1564;1904392805;PAS
Pavla;Bártová;31.1.1950;Tlučná;Tyršova;238;2077826376;PAS
Martina;Suchá;22.1.1945;Hluboká nad Vltavou;Chrost;434;1248818468;PAS
Marta;Řeháková;21.4.1993;Hrušovany u Brna;Slunečná;951;2103369275;PAS
K.;N.;29.7.1987;Kroměříž;1. máje;381;85016768;PAS
Kristýna;Sobotková;16.3.1940;Choceň;Blízká;458;1089174196;PAS
Nela;Sobotková;1194109284;Nový Bydžov;Na Strážišti;27.6.1965;;PAS
XXXX;Sikorová;31.3.1955;Zlín;sídl. Dukelských hrdinů;403;1499256967;OP
Božena;Šulcová;26.3.1980;CT;U Sv. Markéty;1603;1063052852;PAS
Miluše;524411343;21.9.1934;Dolní Lutyně;Na Křtině;1777;1549163901;OP
Nikola;Bláhová;23.9.1971;Jindřichův Hradec;Široká;915;1313138403;PAS
Andrej;Vrána;31.8.1941;Sedlčany;Jungmannova;604;85016768;PAS
Vlastislav;Uhlíř;3.10.2016;Bělá pod Bezdězem;Podohradská;14;915347197;OP
Jarmila;Dušková;10.3.2006;IG;Smaragdová;490;1454104960;PAS
Žaneta;Málková;19.4.1989;Kostelec nad Orlicí;Stradonická;165;459843621;OP
Pavel;1355285650;24.4.1975;Tišnov;U Botiče;1496;451941040;OP
ĥĉāĢĆĢġąĤĤāĥďĜĒ;ĒĘĕĆĢč;20.11.1989;Sezemice;U Borku;1396;103J125;PAS
Iva;Navrátilová;X;NH;Měšická;934;1845341392;PAS
Růžena;Králová;25.9.1957;Opava;Sladovní;839;1421580812;OP
МЛГПЕО;ЕЙ;19.8.1948;Rakovník;Na Jezerce;284;1114790563;PAS
Martin;Krejčí;5.11.1971;Strakonice;V Zátiší;386;1787642593;OP
Sofie;Zahradníková;30.4.2021;Letohrad;Šeříková;371;1913084564;PAS
Gabriela;Růžičková;12.1.1935;FD;Antonína Hodného;1169;274954212;OP
Kamil;Prokeš;NEVÍM;Bechyně;Ořechová;1108;1090368562;OP
Petr;Hrubý;5.1.2016;Hluk;Tržní;508;734880869;OP
Věra;Kohoutová;4.11.2017;Rájec-Jestřebí;Pernštýnské náměstí;626;1972361215;PAS
XXXX;Trávníčková;6.7.2020;Nový Bydžov;Mírová;1395;63518687;PAS
ĘĊďĈąĊĆĖďğěĀĝĢďĕ;ĆĈĊģĝĈĉĕħģģĐ;23.1.1997;Kyjov;Jilmová;600;490940751;OP
Jitka;Pavlíčková;14.4.1969;Žďár nad Sázavou;Osadní;1707;851925044;OP
Roman;1502807286;23.2.1994;Příbram;K Hřebčinci;144;300210228;OP
Alžběta;Pavlíková;21.7.1948;Veselí nad Moravou;Topolová;;1277770418;PAS
Otakar;Burian;X;Veselí nad Lužnicí;U Bytovek;9;27325470;
O.;H.;9.3.1986;Kostelec nad Orlicí;Kaštanová;980;1906811511;OP
Vladimíra;Peterková;22.3.1968;Bzenec;Březinky;476;1124520035;PAS
Pavla;Málková;15.4.1958;Dubí;Fialová;674;25856206;PAS
XXXX;Fialová;4.5.1991;Střelice;K Jezu;1017;1024929491;PAS
Bohumila;Sedláčková;14.10.1973;Sedlčany;nám. Osvobození;1234;1441306921;PAS
Dušan;Tesař;17.2.2020;Litvínov;Na Sídlišti;1771;834543412;OP
Marie;Zajíčková;X;Březnice;Mlýnská;75;1006576113;PAS
Radim;Bednář;13.12.1939;Bolatice;Vodárenská;655;1745046360;OP
Denisa;Jelínková;27.8.1996;Chlumec;Račiněveská;XXXX;1330915148;PAS
Jan;Macháček;1.1.0001;Hradec Králové;Klicperova;1783;1431324243;PAS
XXXX;Adamová;6.12.1958;Rapotín;Sladovní;;1774032490;PAS
Pavlína;576390578;30.11.1962;Kralovice;Labutí;170;2140199953;OP
Lucie;Žáková;7.12.1953;Roztoky;Trávníky;1589;2007410307;PAS
S.;J.;2.1.1978;Kostelec nad Orlicí;Chelčického;570;2123336845;PAS
Emilie;Jarošová;30.5.2006;Jesenice;Vrťátkova;788;1888158079;PAS
Dominika;Komárková;7.1.2014;Rapotín;Aloise Havla;1609;1065531978;PAS
Bronislav;Vávra;13.9.2018;Blatná;Bakošovec;982;792341674;
Pavla;Adamová;10.3.1937;Šlapanice;Hrudičkova;443;1433424138;PAS
Bronislav;14205937;6.3.1951;Dubňany;Píškova;49;95011551;OP
Adéla;Šťastná;30.5.1976;DQ;Kutnauerova;400;1793847007;PAS
Vladislav;Charvát;3.7.1953;OT;Na Vršku;750;219515555;OP
Tadeáš;Vlasák;1.1.0001;Zruč-Senec;U Matěje;1817;1344196211;PAS
Štěpánka;Veselá;22.10.1999;Mladá Boleslav;Dobrovského;1824;1212695171;OP
Barbora;Kroupová;20.10.1938;Bystřice pod Hostýnem;Jarníkova;1316;1215971927;OP
Jana;Kozáková;1.1.0001;Lipník nad Bečvou;Všehlušická;1815;1745046360;OP
Dušan;Holý;28.8.2004;Zeleneč;Slídová;1030;1394294811;OP
Květoslava;Jarošová;NEVÍM;Libušín;Bužkovská;1392;85845274;PAS
XXXX;Kovaříková;11.4.2021;Zruč-Senec;Bohumila Hájka;546;1459176545;PAS
ĖăāąĘĒėĖĄĜČĢĐĝċđ;čĐĈċġĒĕĢēĜċĤĜĞĞ;1.4.1963;Česká Kamenice;Sekeřická;933;1093227653;PAS
Stanislav;Richter;28.2.2008;Albrechtice;Na Viničkách;159;347480747;OP
Jana;Štěrbová;17.1.2006;Dobřichovice;Květinová;1456;1447057921;PAS
Dana;Švarcová;11.3.1990;Rokycany;Poutní;1029;301162069;OP
Pavlína;Hovorková;X;Pardubice;Ve Dvorcích;817;1493581614;PAS
БУКЛУЙТД;ПАЗУЙЛГКСМОЛП;11.1.1977;Dobrá;V Alejíčkách;1529;1749750982;PAS
Vojtěch;Novák;27.6.1985;Lysá nad Labem;K Řečici;XXXX;791726312;OP
Jitka;Navrátilová;NEVÍM;Šenov;V Ráji;45;250923030;OP
Klára;Nosková;23.10.1986;Smržovka;Habrová;146;1663562190;PAS
Bohumila;Málková;12.10.2000;Bzenec;Čachna;277;472203765;
Štefan;Sobotka;3.5.1958;Stříbro;Generála Svobody;XXXX;1466233643;PAS
Otto;Charvát;1865638106;Žirovnice;Modrá;26.7.1946;;PAS
Irena;Krátká;23.11.1946;Letohrad;Pampelišková;766;2117117459;PAS
Andrea;Poláková;30.4.1982;Vejprnice;Venušina;997;1516242171;OP
Radomír;Toman;20.7.1985;Cheb;Mistřínská;686;902R038;OP
Leoš;Valenta;18.2.1997;QC;Okružní;1368;1748205941;
Kamil;Šindelář;9.10.1994;Blansko;Venušina;1810;791726312;OP
Božena;Tomášková;1336630359;Český Těšín;Jalovcová;9.6.1964;;PAS
Dušan;Beneš;X;Lom;Matěje Hůlky;137;149771089;OP
Sabina;Křížová;30.8.2008;Bohumín;Rychtaříkova;;1081372803;PAS
Petra;Kubíková;10.7.1942;Týnec nad Sázavou;Rolavská;849;1594627480;PAS
S.;S.;20.10.1969;Lomnice nad Popelkou;U Kapličky;183;2047468556;PAS
Marian;Václavík;4.4.2008;Humpolec;nám. Dr. E. Beneše;XXXX;809784270;OP
Vlastislav;Veselý;17.2.1998;Hranice;K Mejtu;920;64318315;OP
Mojmír;Pokorný;X;SI;Výletní;660;1210165620;OP
ТАГНТЖААГЖЕОА;ЖВГТБАБДБДЕКЖДА;30.12.1965;Štěpánkovice;U střediska;442;1360657742;PAS
ĎģħĞć;ģĐħ;18.4.1998;Tábor;Podhájí;511;1047772985;PAS
Přemysl;Konečný;5.1.2018;Zruč nad Sázavou;Čechova;216;1632491586;OP
Svatopluk;Bartoš;7.9.2002;Albrechtice;U Bažantnice;693;541754905;PAS
Veronika;Žáčková;118961950;Zábřeh;Královny Žofie;;;OP
Tibor;Březina;12.12.1968;Vyškov;Masarykovo nám.;489;1786492233;OP
Sabina;Říhová;55017184;Skuteč;Pasecká;7.1.1937;;PAS
ċĘčĀĎĎĒĝ;ĘĝĖħĚęčğĈċč;12.3.1958;Bílovec;Pod Zahradami;784;1381162746;PAS
A.;S.;18.10.1967;Horní Suchá;Safírová;1844;1583843068;OP
Jakub;Kuchař;21.2.1964;Nová Role;Dlouhá;1202;37582712;OP
Natálie;Havlová;16.11.1972;Chodov;Za Farou;787;397410852;OP
Alice;Charvátová;19.8.1985;KQ;Palackého náměstí;1695;476I400;OP
Vladimíra;Procházková;25.6.1937;Kravaře;Freudova;1258;120658391;OP
Libor;Gregor;27.4.1967;Zlín;U Smolnic;489;1186105818;OP
Luděk;Šebesta;14.9.1997;Kozlovice;Zalinská;1194;1792018367;PAS
Nikolas;Čermák;9.3.1969;EJ;Vilémovská;1795;1996078763;PAS
ПИДАОЖАИМОУЕОГ;ГГУНОТИЛДГИ;9.9.1968;FH;Pod kopcem;886;1848817965;OP
Viktorie;Hrubá;12.12.1999;Klatovy;Průškova;;1308650233;OP
Sabina;Zajícová;X;Rakovník;Ve Stromořadí;599;1808899778;PAS
Alois;Ptáček;27.5.1984;Bolatice;V kopci;;1439061593;PAS
Vlasta;Králová;20.8.1975;Zruč-Senec;Pod Hájem;1866;942208158;OP
Dominik;Jílek;11.11.1953;Hulín;Poříčská;567;1278843545;OP
Andrea;Zelenková;X;Protivín;Provaznická;968;1295787823;PAS
ЙВДИГМАЛДВОМН;ДБЗСМ;X;Bystřice;Na drahách;999;2127358259;PAS
čččċĂĘċ;ĈĘĆĉČģĜĆĒĒĥĎćĘďČ;23.1.1941;Trhové Sviny;Lesní cesta Vojanka;265;1983152402;PAS
Dominik;Dohnal;19.10.1940;SK;Na Paloučku;1976;1350003292;OP
Tereza;Stará;16.8.1948;Řevnice;Kašeho;1355;1281082385;PAS
Irena;1876110889;X;Říčany;Sýkorová;724;267952481;OP
Julie;Švarcová;22.9.1952;Hradec Králové;Na Strážišti;996;1915755555;OP
Jarmila;Beránková;20.2.2000;Postoloprty;Pod Hájem;1460;1798732958;PAS
Jindřiška;Dušková;5.11.1935;EI;Hypšmanova;1007;1407089640;
XXXX;Zavadilová;2.5.1947;Kaplice;K Zabrkům;90;1732083827;PAS
Jarmila;Šrámková;X;Petrovice u Karviné;Anglická;1420;2021437194;PAS
Bronislav;Tomek;4.11.2019;Opava;K Pětimostí;1619;165B198;OP
Zdenka;Smetanová;NEVÍM;Ostrov;Květinová;1013;2141840757;PAS
Veronika;Němcová;13.4.1986;Lom;U Olivovny;60;1621292357;OP
M.;Š.;X;Hlinsko;Zamašská;142;1102504638;PAS
Kamila;Procházková;X;Praha;Luženická;1479;1735079792;PAS
Ludvík;Petřík;1.10.1943;Rožmitál pod Třemšínem;Smilova;195;589850589;OP
Lubomír;Kopřiva;15.9.1994;LJ;Hornická;1281;1594993300;OP
Pavlína;Hošková;12.8.1999;MF;Letní;425;90422246;PAS
ПЗОЕЗВ;ДЛАИН;26.2.1939;Odolena Voda;Na Okruhu;1069;470978726;OP
Dalibor;Souček;24.4.2022;Nová Bystřice;Husova;789;1382217290;PAS
Milan;Chalupa;1.12.1976;Rosice;V Planinách;XXXX;1721051275;PAS
XXXX;Vaněk;5.8.1963;DM;K Vrbě;171;2124403555;PAS
Stanislava;Němečková;18.9.1942;Zdiby;Dělnická;424;81863339;PAS
Ivana;Čejková;7.5.2020;Suchdol nad Lužnicí;Krátkého;1116;471283914;OP
Dana;Janečková;2.9.1949;Dubňany;Čeradická;XXXX;1750172353;PAS
Gabriela;Musilová;4.9.1940;Karviná;Hamerská;1626;766935283;OP
Zdenek;Jaroš;30.8.1999;Jílové u Prahy;Sportovní;1471;1711762806;PAS
Jarmila;Filipová;1033952159;Vrbno pod Pradědem;Kučoviny;X;;PAS
Milada;Mrázová;9.3.2000;Napajedla;K Lesu;475;1438110128;OP
Štěpánka;Křížová;1.1.0001;Louny;Pelikánová;819;1315944377;PAS
Vladimír;Tomášek;20.12.1936;Tábor;Za Klokočkou;XXXX;1301826329;PAS
Sabina;Nová;8.10.1992;Bučovice;Jaroměřská;1789;120G926;OP
Vilém;Krejčí;24.2.1966;Hranice;Na Dolíku;788;1732883966;PAS
Evžen;Kašpar;16.2.1990;Brno;Křejpského;XXXX;1212359926;OP
Žaneta;Bílková;20.7.2020;Veselí nad Lužnicí;Na Luka;505;61913861;
ĈāĝđĘĥęČĉĚĝĖĉ;ēĞāğāĜĞ;30.2.1938;Kuřim;Husovo náměstí;117;1625355744;PAS
Alexandr;Malý;5.6.1940;Borovany;Za Školou;542;113D475;OP
Miloslava;Macková;7.4.2007;Mladá Boleslav;V Cihelnách;275;1225441516;PAS
Ilona;Březinová;8.10.2018;Rýmařov;Pod Babou;629;1061660098;
Denis;Prokeš;4.10.1982;Jablonec nad Nisou;Hrádecká;1564;1162515709;PAS
Robin;Majer;11.1.1990;Kdyně;Javorová;611;1225441516;PAS
Naděžda;Berková;7.11.1961;Soběslav;K Průhonicům;99;1005789703;PAS
ĔăęĄčĆ;ėĞĝĘģăġďĔēĢ;20.5.1990;Palkovice;Na Samotě;737;943671770;OP
Jindřich;833997592;23.8.2022;Jiříkov;V úvozu;1882;1327975380;OP
Květoslava;975383820;7.8.1998;Opava;Kurt-Köhler-Straße;1327;1271142534;PAS
Karolína;2135224482;1.12.2016;Větřní;5. května;452;1893205011;PAS
Dagmar;Vondráčková;2008339259;Kraslice;Dlouhé role;;;PAS
Aneta;Berková;30.5.1996;Ústí nad Labem;Na Jívách;1556;1055309641;OP
David;Švarc;25.3.1981;Žamberk;Hrudičkova;351;1913314492;PAS
Miroslav;Kováč;6.4.1965;Albrechtice;Kumpoštova;XXXX;1188809751;OP
Adéla;Beránková;1412641287;Vrbno pod Pradědem;Ke Studánkám;26.1.1969;;PAS
ЗСРЙКК;СЙЙ;23.3.1995;Třebechovice pod Orebem;Košařova;1744;1001232078;OP
Radka;Petříková;11.10.2021;Vizovice;Příčná;1843;1082884925;PAS
Iva;Koudelková;12.6.1979;Bojkovice;V Belíce;1581;40705786;PAS
Vladimír;Mašek;25.7.1960;Jablunkov;Měsíční;1217;1724450716;OP
R.;B.;19.5.1986;Veverská Bítýška;Nad Volyňkou;220;1932953761;PAS
